wokwi.vcd
$version Generated by Wokwi.com $end
$date Tue, 21 Apr 2026 02:36:16 GMT $end
$timescale 1ns $end
$scope module logic $end
$var wire 1 ! D0 $end
$var wire 1 " D1 $end
$var wire 1 # D2 $end
$upscope $end
$enddefinitions $end
#0
0!
#0
0"
#0
1#
#2426271042
0#
#2426472467
1"
#2426476967
1#
#2626508654
0"
#2626513404
0#
#2826508779
1"
#2826513279
1#
#3026508654
0"
#3026513404
0#
#3226508779
1"
#3226513279
1#
#3426508654
0"
#3426513404
0#
#3647074010
1!
#3648510385
0!
#3667065072
1!
#3668510384
0!
#3687065072
1!
#3688510385
0!
#3707065073
1!
#3708510385
0!
#3727065072
1!
#3728510385
0!
#3747065072
1!
#3748510384
0!
#3767065072
1!
#3768510385
0!
#3787065073
1!
#3788510385
0!
#3807065072
1!
#3808510385
0!
#3827065072
1!
#3828510384
0!
#3847065072
1!
#3848510385
0!
#3867065073
1!
#3868510385
0!
#3887065072
1!
#3888510385
0!
#3907065072
1!
#3908510384
0!
#3927065072
1!
#3928510385
0!
#3947065073
1!
#3948510385
0!
#3967065072
1!
#3968510385
0!
#3987065072
1!
#3988510384
0!
#4007065072
1!
#4008510385
0!
#4027065073
1!
#4028510385
0!
#4047065072
1!
#4048510385
0!
#4067065072
1!
#4068510384
0!
#4087065072
1!
#4088510385
0!
#4107065073
1!
#4108510385
0!
#4127065072
1!
#4147568910
0!
#4167065072
1!
#4167553353
0!
#4187065073
1!
#4187553354
0!
#4207065072
1!
#4207553354
0!
#4227065072
1!
#4227553353
0!
#4247065072
1!
#4247553353
0!
#4267065073
1!
#4267553354
0!
#4287065072
1!
#4287553354
0!
#4307065072
1!
#4307553353
0!
#4327065072
1!
#4327553353
0!
#4347065073
1!
#4347553354
0!
#4367065072
1!
#4367553354
0!
#4387065072
1!
#4387553353
0!
#4407065072
1!
#4407553353
0!
#4427065073
1!
#4427553354
0!
#4447065072
1!
#4447553354
0!
#4467065072
1!
#4467553353
0!
#4487065072
1!
#4487553353
0!
#4507065073
1!
#4507553354
0!
#4527065072
1!
#4527553354
0!
#4547065072
1!
#4547553353
0!
#4567065072
1!
#4567553353
0!
#4587065073
1!
#4587553354
0!
#4607065072
1!
#4607553354
0!
#4627065072
1!
#4627553353
0!
#4647065072
1!
#4647553353
0!
#4667065073
1!
#4667553354
0!
#4687065072
1!
#4687553354
0!
#4707065072
1!
#4707553353
0!
#4727065072
1!
#4727553353
0!
#4747065073
1!
#4747553354
0!
#4767065072
1!
#4767553354
0!
#4787065072
1!
#4787553353
0!
#4807065072
1!
#4807553353
0!
#4827065073
1!
#4827553354
0!
#4847065072
1!
#4847553354
0!
#4867065072
1!
#4867553353
0!
#4887065072
1!
#4887553353
0!
#4907065073
1!
#4907553354
0!
#4927065072
1!
#4927553354
0!
#4947065072
1!
#4947553353
0!
#4967065072
1!
#4967553353
0!
#4987065073
1!
#4987553354
0!
#5007065072
1!
#5007553354
0!
#5027065072
1!
#5027553353
0!
#5047065072
1!
#5047553353
0!
#5067065073
1!
#5067553354
0!
#5087065072
1!
#5087553354
0!
#5107065072
1!
#5107553353
0!
#5127065072
1!
#5127553353
0!
#5147065073
1!
#5147553354
0!
#5167065072
1!
#5167553354
0!
#5187065072
1!
#5187553353
0!
#5207065072
1!
#5207553353
0!
#5227065073
1!
#5227553354
0!
#5247065072
1!
#5247553354
0!
#5267065072
1!
#5267553353
0!
#5287065072
1!
#5287553353
0!
#5307065073
1!
#5307553354
0!
#5327065072
1!
#5327553354
0!
#5347065072
1!
#5347553353
0!
#5367065072
1!
#5367553353
0!
#5387065073
1!
#5387553354
0!
#5407065072
1!
#5407553354
0!
#5427065072
1!
#5427553353
0!
#5447065072
1!
#5447553353
0!
#5467065073
1!
#5467553354
0!
#5487065072
1!
#5487553354
0!
#5507065072
1!
#5507553353
0!
#5527065072
1!
#5527553353
0!
#5547065073
1!
#5547553354
0!
#5567065072
1!
#5567553354
0!
#5587065072
1!
#5587553353
0!
#5607065072
1!
#5607553353
0!
#5627065073
1!
#5627553354
0!
#5647065072
1!
#5647553354
0!
#5667065072
1!
#5667553353
0!
#5687065072
1!
#5687553353
0!
#5707065073
1!
#5707553354
0!
#5727065072
1!
#5727553354
0!
#5747065072
1!
#5747553353
0!
#5767065072
1!
#5767553353
0!
#5787065073
1!
#5787553354
0!
#5807065072
1!
#5807553354
0!
#5827065072
1!
#5827553353
0!
#5847065072
1!
#5847553353
0!
#5867065073
1!
#5867553354
0!
#5874594425
1"
#5874599050
1#
#5887065072
1!
#5887553354
0!
#5907065072
1!
#5907553353
0!
#5927065072
1!
#5927553353
0!
#5947065073
1!
#5947553354
0!
#5967065072
1!
#5967553354
0!
#5987065072
1!
#5987553353
0!
#6007065072
1!
#6007553353
0!
#6027065073
1!
#6027553354
0!
#6047065072
1!
#6047553354
0!
#6067065072
1!
#6067553353
0!
#6087065072
1!
#6087553353
0!
#6107065073
1!
#6107553354
0!
#6127065072
1!
#6127553354
0!
#6137697192
0"
#6137702067
0#
#6147065072
1!
#6147553353
0!
#6167065072
1!
#6167553353
0!
#6187065073
1!
#6187553354
0!
#6207065072
1!
#6207553354
0!
#6227065072
1!
#6227553353
0!
#6247065072
1!
#6247553353
0!
#6267065073
1!
#6267553354
0!
#6287065072
1!
#6287553354
0!
#6307065072
1!
#6307553353
0!
#6327065072
1!
#6327553353
0!
#6347065073
1!
#6347553354
0!
#6367065072
1!
#6367553354
0!
#6387065072
1!
#6387553353
0!
#6407065072
1!
#6407553353
0!
#6427065073
1!
#6427553354
0!
#6447065072
1!
#6447553354
0!
#6467065072
1!
#6467553353
0!
#6487065072
1!
#6487553353
0!
#6500015764
1"
#6500015919
1#
#6507065073
1!
#6507553354
0!
#6527065072
1!
#6527553354
0!
#6547065072
1!
#6547553353
0!
#6567065072
1!
#6567553353
0!
#6587065073
1!
#6587553354
0!
#6607065072
1!
#6607553354
0!
#6627065072
1!
#6627553353
0!
#6647065072
1!
#6647553353
0!
#6667065073
1!
#6667553354
0!
#6687065072
1!
#6687553354
0!
#6707065072
1!
#6707553353
0!
#6727065072
1!
#6727553353
0!
#6747065073
1!
#6747553354
0!
#6767065072
1!
#6767553354
0!
#6787065072
1!
#6787553353
0!
#6807065072
1!
#6807553353
0!
#6827065073
1!
#6827553354
0!
#6847065072
1!
#6847553354
0!
#6867065072
1!
#6867553353
0!
#6887065072
1!
#6887553353
0!
#6907065073
1!
#6907553354
0!
#6927065072
1!
#6927553354
0!
#6947065072
1!
#6947553353
0!
#6967065072
1!
#6967553353
0!
#6987065073
1!
#6987553354
0!
#7000016634
0"
#7000016796
0#
#7007065072
1!
#7007553354
0!
#7027065072
1!
#7027553353
0!
#7047065072
1!
#7047553353
0!
#7067065073
1!
#7067553354
0!
#7087065072
1!
#7087553354
0!
#7107065072
1!
#7107553353
0!
#7127065072
1!
#7127553353
0!
#7147065073
1!
#7147553354
0!
#7167065072
1!
#7167553354
0!
#7187065072
1!
#7187553353
0!
#7207065072
1!
#7207553353
0!
#7227065073
1!
#7227553354
0!
#7247065072
1!
#7247553354
0!
#7267065072
1!
#7267553353
0!
#7287065072
1!
#7287553353
0!
#7307065073
1!
#7307553354
0!
#7327065072
1!
#7327553354
0!
#7347065072
1!
#7347553353
0!
#7367065072
1!
#7367553353
0!
#7387065073
1!
#7387553354
0!
#7407065072
1!
#7407553354
0!
#7427065072
1!
#7427553353
0!
#7447065072
1!
#7447553353
0!
#7467065073
1!
#7467553354
0!
#7487065072
1!
#7487553354
0!
#7500015790
1"
#7500015944
1#
#7507065072
1!
#7507553353
0!
#7527065072
1!
#7527553353
0!
#7547065073
1!
#7547553354
0!
#7567065072
1!
#7567553354
0!
#7587065072
1!
#7587553353
0!
#7607065072
1!
#7607553353
0!
#7627065073
1!
#7627553354
0!
#7647065072
1!
#7647553354
0!
#7667065072
1!
#7667553353
0!
#7687065072
1!
#7687553353
0!
#7707065073
1!
#7707553354
0!
#7727065072
1!
#7727553354
0!
#7747065072
1!
#7747553353
0!
#7767065072
1!
#7767553353
0!
#7787065073
1!
#7787553354
0!
#7807065072
1!
#7807553354
0!
#7827065072
1!
#7827553353
0!
#7847065072
1!
#7847553353
0!
#7867065073
1!
#7867553354
0!
#7887065072
1!
#7887553354
0!
#7907065072
1!
#7907553353
0!
#7927065072
1!
#7927553353
0!
#7947065073
1!
#7947553354
0!
#7967065072
1!
#7967553354
0!
#7987065072
1!
#7987553353
0!
#8007065072
1!
#8007553353
0!
#8027065073
1!
#8027553354
0!
#8040451763
0"
#8040456638
0#
#8047065072
1!
#8047553354
0!
#8067065072
1!
#8067553353
0!
#8087065072
1!
#8087553353
0!
#8107065073
1!
#8107553354
0!
#8127065072
1!
#8127553354
0!
#8147065072
1!
#8147553353
0!
#8167065072
1!
#8167553353
0!
#8187065073
1!
#8187553354
0!
#8207065072
1!
#8207553354
0!
#8227065072
1!
#8227553353
0!
#8247065072
1!
#8247553353
0!
#8267065073
1!
#8267553354
0!
#8287065072
1!
#8287553354
0!
#8307065072
1!
#8307553353
0!
#8327065072
1!
#8327553353
0!
#8347065073
1!
#8347553354
0!
#8367065072
1!
#8367553354
0!
#8387065072
1!
#8387553353
0!
#8407065072
1!
#8407553353
0!
#8427065073
1!
#8427553354
0!
#8447065072
1!
#8447553354
0!
#8467065072
1!
#8467553353
0!
#8487065072
1!
#8487553353
0!
#8500015815
1"
#8500015969
1#
#8507065073
1!
#8507553354
0!
#8527065072
1!
#8527553354
0!
#8547065072
1!
#8547553353
0!
#8567065072
1!
#8567553353
0!
#8587065073
1!
#8587553354
0!
#8607065072
1!
#8607553354
0!
#8627065072
1!
#8627553353
0!
#8647065072
1!
#8647553353
0!
#8667065073
1!
#8667553354
0!
#8687065072
1!
#8687553354
0!
#8707065072
1!
#8707553353
0!
#8727065072
1!
#8727553353
0!
#8747065073
1!
#8747553354
0!
#8767065072
1!
#8767553354
0!
#8787065072
1!
#8787553353
0!
#8807065072
1!
#8807553353
0!
#8827065073
1!
#8827553354
0!
#8847065072
1!
#8847553354
0!
#8867065072
1!
#8867553353
0!
#8887065072
1!
#8887553353
0!
#8907065073
1!
#8907553354
0!
#8927065072
1!
#8927553354
0!
#8947065072
1!
#8947553353
0!
#8967065072
1!
#8967553353
0!
#8987065073
1!
#8987553354
0!
#9000016532
0"
#9000016695
0#
#9007065072
1!
#9007553354
0!
#9027065072
1!
#9027553353
0!
#9047065072
1!
#9047553353
0!
#9067065073
1!
#9067553354
0!
#9087065072
1!
#9087553354
0!
#9107065072
1!
#9107553353
0!
#9127065072
1!
#9127553353
0!
#9147065073
1!
#9147553354
0!
#9167065072
1!
#9167553354
0!
#9187065072
1!
#9187553353
0!
#9207065072
1!
#9207553353
0!
#9227065073
1!
#9227553354
0!
#9247065072
1!
#9247553354
0!
#9267065072
1!
#9267553353
0!
#9287065072
1!
#9287553353
0!
#9307065073
1!
#9307553354
0!
#9327065072
1!
#9327553354
0!
#9347065072
1!
#9347553353
0!
#9367065072
1!
#9367553353
0!
#9387065073
1!
#9387553354
0!
#9407065072
1!
#9407553354
0!
#9427065072
1!
#9427553353
0!
#9447065072
1!
#9447553353
0!
#9467065073
1!
#9467553354
0!
#9487065072
1!
#9487553354
0!
#9500015823
1"
#9500015978
1#
#9507065072
1!
#9507553353
0!
#9527065072
1!
#9527553353
0!
#9547065073
1!
#9547553354
0!
#9567065072
1!
#9567553354
0!
#9587065072
1!
#9587553353
0!
#9607065072
1!
#9607553353
0!
#9627065073
1!
#9627553354
0!
#9647065072
1!
#9647553354
0!
#9667065072
1!
#9667553353
0!
#9687065072
1!
#9687553353
0!
#9707065073
1!
#9707553354
0!
#9727065072
1!
#9727553354
0!
#9747065072
1!
#9747553353
0!
#9767065072
1!
#9767553353
0!
#9787065073
1!
#9787553354
0!
#9807065072
1!
#9807553354
0!
#9827065072
1!
#9827553353
0!
#9847065072
1!
#9847553353
0!
#9867065073
1!
#9867553354
0!
#9887065072
1!
#9887553354
0!
#9907065072
1!
#9907553353
0!
#9927065072
1!
#9927553353
0!
#9947065073
1!
#9947553354
0!
#9967065072
1!
#9967553354
0!
#9987065072
1!
#9987553353
0!
#10007065072
1!
#10007553353
0!
#10027065073
1!
#10027553354
0!
#10047065072
1!
#10047553354
0!
#10067065072
1!
#10067553353
0!
#10070439645
0"
#10070444520
0#
#10087065072
1!
#10087553353
0!
#10107065073
1!
#10107553354
0!
#10127065072
1!
#10127553354
0!
#10147065072
1!
#10147553353
0!
#10167065072
1!
#10167553353
0!
#10187065073
1!
#10187553354
0!
#10207065072
1!
#10207553354
0!
#10227065072
1!
#10227553353
0!
#10247065072
1!
#10247553353
0!
#10267065073
1!
#10267553354
0!
#10287065072
1!
#10287553354
0!
#10307065072
1!
#10307553353
0!
#10327065072
1!
#10327553353
0!
#10347065073
1!
#10347553354
0!
#10367065072
1!
#10367553354
0!
#10387065072
1!
#10387553353
0!
#10407065072
1!
#10407553353
0!
#10427065073
1!
#10427553354
0!
#10447065072
1!
#10447553354
0!
#10467065072
1!
#10467553353
0!
#10487065072
1!
#10487553353
0!
#10500015803
1"
#10500015957
1#
#10507065073
1!
#10507553354
0!
#10527065072
1!
#10527553354
0!
#10547065072
1!
#10547553353
0!
#10567065072
1!
#10567553353
0!
#10587065073
1!
#10587553354
0!
#10607065072
1!
#10607553354
0!
#10627065072
1!
#10627553353
0!
#10647065072
1!
#10647553353
0!
#10667065073
1!
#10667553354
0!
#10687065072
1!
#10687553354
0!
#10707065072
1!
#10707553353
0!
#10727065072
1!
#10727553353
0!
#10747065073
1!
#10747553354
0!
#10767065072
1!
#10767553354
0!
#10787065072
1!
#10787553353
0!
#10807065072
1!
#10807553353
0!
#10827065073
1!
#10827553354
0!
#10847065072
1!
#10847553354
0!
#10867065072
1!
#10867553353
0!
#10887065072
1!
#10887553353
0!
#10907065073
1!
#10907553354
0!
#10927065072
1!
#10927553354
0!
#10947065072
1!
#10947553353
0!
#10967065072
1!
#10967553353
0!
#10987065073
1!
#10987553354
0!
#11000016623
0"
#11000016786
0#
#11007065072
1!
#11007553354
0!
#11027065072
1!
#11027553353
0!
#11047065072
1!
#11047553353
0!
#11067065073
1!
#11067553354
0!
#11087065072
1!
#11087553354
0!
#11107065072
1!
#11107553353
0!
#11127065072
1!
#11127553353
0!
#11147065073
1!
#11147553354
0!
#11167065072
1!
#11167553354
0!
#11187065072
1!
#11187553353
0!
#11207065072
1!
#11207553353
0!
#11227065073
1!
#11227553354
0!
#11247065072
1!
#11247553354
0!
#11267065072
1!
#11267553353
0!
#11287065072
1!
#11287553353
0!
#11307065073
1!
#11307553354
0!
#11327065072
1!
#11327553354
0!
#11347065072
1!
#11347553353
0!
#11367065072
1!
#11367553353
0!
#11387065073
1!
#11387553354
0!
#11407065072
1!
#11407553354
0!
#11427065072
1!
#11427553353
0!
#11447065072
1!
#11447553353
0!
#11467065073
1!
#11467553354
0!
#11487065072
1!
#11487553354
0!
#11500015839
1"
#11500015993
1#
#11507065072
1!
#11507553353
0!
#11527065072
1!
#11527553353
0!
#11547065073
1!
#11547553354
0!
#11567065072
1!
#11567553354
0!
#11587065072
1!
#11587553353
0!
#11607065072
1!
#11607553353
0!
#11627065073
1!
#11627553354
0!
#11647065072
1!
#11647553354
0!
#11667065072
1!
#11667553353
0!
#11687065072
1!
#11687553353
0!
#11707065073
1!
#11707553354
0!
#11727065072
1!
#11727553354
0!
#11747065072
1!
#11747553353
0!
#11767065072
1!
#11767553353
0!
#11787065073
1!
#11787553354
0!
#11807065072
1!
#11807553354
0!
#11827065072
1!
#11827553353
0!
#11847065072
1!
#11847553353
0!
#11867065073
1!
#11867553354
0!
#11887065072
1!
#11887553354
0!
#11907065072
1!
#11907553353
0!
#11927065072
1!
#11927553353
0!
#11947065073
1!
#11947553354
0!
#11967065072
1!
#11967553354
0!
#11987065072
1!
#11987553353
0!
#12007065072
1!
#12007553353
0!
#12027065073
1!
#12027553354
0!
#12047065072
1!
#12047553354
0!
#12067065072
1!
#12067553353
0!
#12070452106
0"
#12070456981
0#
#12087065072
1!
#12087553353
0!
#12107065073
1!
#12107553354
0!
#12127065072
1!
#12127553354
0!
#12147065072
1!
#12147553353
0!
#12167065072
1!
#12167553353
0!
#12187065073
1!
#12187553354
0!
#12207065072
1!
#12207553354
0!
#12227065072
1!
#12227553353
0!
#12247065072
1!
#12247553353
0!
#12267065073
1!
#12267553354
0!
#12287065072
1!
#12287553354
0!
#12307065072
1!
#12307553353
0!
#12327065072
1!
#12327553353
0!
#12347065073
1!
#12347553354
0!
#12367065072
1!
#12367553354
0!
#12387065072
1!
#12387553353
0!
#12407065072
1!
#12407553353
0!
#12427065073
1!
#12427553354
0!
#12447065072
1!
#12447553354
0!
#12467065072
1!
#12467553353
0!
#12487065072
1!
#12487553353
0!
#12500015823
1"
#12500015977
1#
#12507065073
1!
#12507553354
0!
#12527065072
1!
#12527553354
0!
#12547065072
1!
#12547553353
0!
#12567065072
1!
#12567553353
0!
#12587065073
1!
#12587553354
0!
#12607065072
1!
#12607553354
0!
#12627065072
1!
#12627553353
0!
#12647065072
1!
#12647553353
0!
#12667065073
1!
#12667553354
0!
#12687065072
1!
#12687553354
0!
#12707065072
1!
#12707553353
0!
#12727065072
1!
#12727553353
0!
#12747065073
1!
#12747553354
0!
#12767065072
1!
#12767553354
0!
#12787065072
1!
#12787553353
0!
#12807065072
1!
#12807553353
0!
#12827065073
1!
#12827553354
0!
#12847065072
1!
#12847553354
0!
#12867065072
1!
#12867553353
0!
#12887065072
1!
#12887553353
0!
#12907065073
1!
#12907553354
0!
#12927065072
1!
#12927553354
0!
#12947065072
1!
#12947553353
0!
#12967065072
1!
#12967553353
0!
#12987065073
1!
#12987553354
0!
#13000016551
0"
#13000016714
0#
#13007065072
1!
#13007553354
0!
#13027065072
1!
#13027553353
0!
#13047065072
1!
#13047553353
0!
#13067065073
1!
#13067553354
0!
#13087065072
1!
#13087553354
0!
#13107065072
1!
#13107553353
0!
#13127065072
1!
#13127553353
0!
#13147065073
1!
#13147553354
0!
#13167065072
1!
#13167553354
0!
#13187065072
1!
#13187553353
0!
#13207065072
1!
#13207553353
0!
#13227065073
1!
#13227553354
0!
#13247065072
1!
#13247553354
0!
#13267065072
1!
#13267553353
0!
#13287065072
1!
#13287553353
0!
#13307065073
1!
#13307553354
0!
#13327065072
1!
#13327553354
0!
#13347065072
1!
#13347553353
0!
#13367065072
1!
#13367553353
0!
#13387065073
1!
#13387553354
0!
#13407065072
1!
#13407553354
0!
#13427065072
1!
#13427553353
0!
#13447065072
1!
#13447553353
0!
#13467065073
1!
#13467553354
0!
#13487065072
1!
#13487553354
0!
#13500015759
1"
#13500015913
1#
#13507065072
1!
#13507553353
0!
#13527065072
1!
#13527553353
0!
#13547065073
1!
#13547553354
0!
#13567065072
1!
#13567553354
0!
#13587065072
1!
#13587553353
0!
#13607065072
1!
#13607553353
0!
#13627065073
1!
#13627553354
0!
#13647065072
1!
#13647553354
0!
#13667065072
1!
#13667553353
0!
#13687065072
1!
#13687553353
0!
#13707065073
1!
#13707553354
0!
#13727065072
1!
#13727553354
0!
#13747065072
1!
#13747553353
0!
#13767065072
1!
#13767553353
0!
#13787065073
1!
#13787553354
0!
#13807065072
1!
#13807553354
0!
#13827065072
1!
#13827553353
0!
#13847065072
1!
#13847553353
0!
#13867065073
1!
#13867553354
0!
#13887065072
1!
#13887553354
0!
#13907065072
1!
#13907553353
0!
#13927065072
1!
#13927553353
0!
#13947065073
1!
#13947553354
0!
#13967065072
1!
#13967553354
0!
#13987065072
1!
#13987553353
0!
#14007065072
1!
#14007553353
0!
#14027065073
1!
#14027553354
0!
#14047065072
1!
#14047553354
0!
#14067065072
1!
#14067553353
0!
#14070450834
0"
#14070455709
0#
#14087065072
1!
#14087553353
0!
#14107065073
1!
#14107553354
0!
#14127065072
1!
#14127553354
0!
#14147065072
1!
#14147553353
0!
#14167065072
1!
#14167553353
0!
#14187065073
1!
#14187553354
0!
#14207065072
1!
#14207553354
0!
#14227065072
1!
#14227553353
0!
#14247065072
1!
#14247553353
0!
#14267065073
1!
#14267553354
0!
#14287065072
1!
#14287553354
0!
#14307065072
1!
#14307553353
0!
#14327065072
1!
#14327553353
0!
#14347065073
1!
#14347553354
0!
#14367065072
1!
#14367553354
0!
#14387065072
1!
#14387553353
0!
#14407065072
1!
#14407553353
0!
#14427065073
1!
#14427553354
0!
#14447065072
1!
#14447553354
0!
#14467065072
1!
#14467553353
0!
#14487065072
1!
#14487553353
0!
#14500015822
1"
#14500015976
1#
#14507065073
1!
#14507553354
0!
#14527065072
1!
#14527553354
0!
#14547065072
1!
#14547553353
0!
#14567065072
1!
#14567553353
0!
#14587065073
1!
#14587553354
0!
#14607065072
1!
#14607553354
0!
#14627065072
1!
#14627553353
0!
#14647065072
1!
#14647553353
0!
#14667065073
1!
#14667553354
0!
#14687065072
1!
#14687553354
0!
#14707065072
1!
#14707553353
0!
#14727065072
1!
#14727553353
0!
#14747065073
1!
#14747553354
0!
#14767065072
1!
#14767553354
0!
#14787065072
1!
#14787553353
0!
#14807065072
1!
#14807553353
0!
#14827065073
1!
#14827553354
0!
#14847065072
1!
#14847553354
0!
#14867065072
1!
#14867553353
0!
#14887065072
1!
#14887553353
0!
#14907065073
1!
#14907553354
0!
#14927065072
1!
#14927553354
0!
#14947065072
1!
#14947553353
0!
#14967065072
1!
#14967553353
0!
#14987065073
1!
#14987553354
0!
#15000016563
0"
#15000016725
0#
#15007065072
1!
#15007553354
0!
#15027065072
1!
#15027553353
0!
#15047065072
1!
#15047553353
0!
#15067065073
1!
#15067553354
0!
#15087065072
1!
#15087553354
0!
#15107065072
1!
#15107553353
0!
#15127065072
1!
#15127553353
0!
#15147065073
1!
#15147553354
0!
#15167065072
1!
#15167553354
0!
#15187065072
1!
#15187553353
0!
#15207065072
1!
#15207553353
0!
#15227065073
1!
#15227553354
0!
#15247065072
1!
#15247553354
0!
#15267065072
1!
#15267553353
0!
#15287065072
1!
#15287553353
0!
#15307065073
1!
#15307553354
0!
#15327065072
1!
#15327553354
0!
#15347065072
1!
#15347553353
0!
#15367065072
1!
#15367553353
0!
#15387065073
1!
#15387553354
0!
#15407065072
1!
#15407553354
0!
#15427065072
1!
#15427553353
0!
#15447065072
1!
#15447553353
0!
#15467065073
1!
#15467553354
0!
#15487065072
1!
#15487553354
0!
#15500015841
1"
#15500015995
1#
#15507065072
1!
#15507553353
0!
#15527065072
1!
#15527553353
0!
#15547065073
1!
#15547553354
0!
#15567065072
1!
#15567553354
0!
#15587065072
1!
#15587553353
0!
#15607065072
1!
#15607553353
0!
#15627065073
1!
#15627553354
0!
#15647065072
1!
#15647553354
0!
#15667065072
1!
#15667553353
0!
#15687065072
1!
#15687553353
0!
#15707065073
1!
#15707553354
0!
#15727065072
1!
#15727553354
0!
#15747065072
1!
#15747553353
0!
#15767065072
1!
#15767553353
0!
#15787065073
1!
#15787553354
0!
#15807065072
1!
#15807553354
0!
#15827065072
1!
#15827553353
0!
#15847065072
1!
#15847553353
0!
#15867065073
1!
#15867553354
0!
#15887065072
1!
#15887553354
0!
#15907065072
1!
#15907553353
0!
#15927065072
1!
#15927553353
0!
#15947065073
1!
#15947553354
0!
#15967065072
1!
#15967553354
0!
#15987065072
1!
#15987553353
0!
#16007065072
1!
#16007553353
0!
#16027065073
1!
#16027553354
0!
#16047065072
1!
#16047553354
0!
#16067065072
1!
#16067553353
0!
#16070452104
0"
#16070456979
0#
#16087065072
1!
#16087553353
0!
#16107065073
1!
#16107553354
0!
#16127065072
1!
#16127553354
0!
#16147065072
1!
#16147553353
0!
#16167065072
1!
#16167553353
0!
#16187065073
1!
#16187553354
0!
#16207065072
1!
#16207553354
0!
#16227065072
1!
#16227553353
0!
#16247065072
1!
#16247553353
0!
#16267065073
1!
#16267553354
0!
#16287065072
1!
#16287553354
0!
#16307065072
1!
#16307553353
0!
#16327065072
1!
#16327553353
0!
#16347065073
1!
#16347553354
0!
#16367065072
1!
#16367553354
0!
#16387065072
1!
#16387553353
0!
#16407065072
1!
#16407553353
0!
#16427065073
1!
#16427553354
0!
#16447065072
1!
#16447553354
0!
#16467065072
1!
#16467553353
0!
#16487065072
1!
#16487553353
0!
#16500015787
1"
#16500015941
1#
#16507065073
1!
#16507553354
0!
#16527065072
1!
#16527553354
0!
#16547065072
1!
#16547553353
0!
#16567065072
1!
#16567553353
0!
#16587065073
1!
#16587553354
0!
#16607065072
1!
#16607553354
0!
#16627065072
1!
#16627553353
0!
#16647065072
1!
#16647553353
0!
#16667065073
1!
#16667553354
0!
#16687065072
1!
#16687553354
0!
#16707065072
1!
#16707553353
0!
#16727065072
1!
#16727553353
0!
#16747065073
1!
#16747553354
0!
#16767065072
1!
#16767553354
0!
#16787065072
1!
#16787553353
0!
#16807065072
1!
#16807553353
0!
#16827065073
1!
#16827553354
0!
#16847065072
1!
#16847553354
0!
#16867065072
1!
#16867553353
0!
#16887065072
1!
#16887553353
0!
#16907065073
1!
#16907553354
0!
#16927065072
1!
#16927553354
0!
#16947065072
1!
#16947553353
0!
#16967065072
1!
#16967553353
0!
#16987065073
1!
#16987553354
0!
#17000016545
0"
#17000016707
0#
#17007065072
1!
#17007553354
0!
#17027065072
1!
#17027553353
0!
#17047065072
1!
#17047553353
0!
#17067065073
1!
#17067553354
0!
#17087065072
1!
#17087553354
0!
#17107065072
1!
#17107553353
0!
#17127065072
1!
#17127553353
0!
#17147065073
1!
#17147553354
0!
#17167065072
1!
#17167553354
0!
#17187065072
1!
#17187553353
0!
#17207065072
1!
#17207553353
0!
#17227065073
1!
#17227553354
0!
#17247065072
1!
#17247553354
0!
#17267065072
1!
#17267553353
0!
#17287065072
1!
#17287553353
0!
#17307065073
1!
#17307553354
0!
#17327065072
1!
#17327553354
0!
#17347065072
1!
#17347553353
0!
#17367065072
1!
#17367553353
0!
#17387065073
1!
#17387553354
0!
#17407065072
1!
#17407553354
0!
#17427065072
1!
#17427553353
0!
#17447065072
1!
#17447553353
0!
#17467065073
1!
#17467553354
0!
#17487065072
1!
#17487553354
0!
#17500015837
1"
#17500015991
1#
#17507065072
1!
#17507553353
0!
#17527065072
1!
#17527553353
0!
#17547065073
1!
#17547553354
0!
#17567065072
1!
#17567553354
0!
#17587065072
1!
#17587553353
0!
#17607065072
1!
#17607553353
0!
#17627065073
1!
#17627553354
0!
#17647065072
1!
#17647553354
0!
#17667065072
1!
#17667553353
0!
#17687065072
1!
#17687553353
0!
#17707065073
1!
#17707553354
0!
#17727065072
1!
#17727553354
0!
#17747065072
1!
#17747553353
0!
#17767065072
1!
#17767553353
0!
#17787065073
1!
#17787553354
0!
#17807065072
1!
#17807553354
0!
#17827065072
1!
#17827553353
0!
#17847065072
1!
#17847553353
0!
#17867065073
1!
#17867553354
0!
#17887065072
1!
#17887553354
0!
#17907065072
1!
#17907553353
0!
#17927065072
1!
#17927553353
0!
#17947065073
1!
#17947553354
0!
#17967065072
1!
#17967553354
0!
#17987065072
1!
#17987553353
0!
#18007065072
1!
#18007553353
0!
#18027065073
1!
#18027553354
0!
#18047065072
1!
#18047553354
0!
#18067065072
1!
#18067553353
0!
#18087065072
1!
#18087553353
0!
#18104156338
0"
#18104161213
0#
#18107065073
1!
#18107553354
0!
#18127065072
1!
#18127553354
0!
#18147065072
1!
#18147553353
0!
#18167065072
1!
#18167553353
0!
#18187065073
1!
#18187553354
0!
#18207065072
1!
#18207553354
0!
#18227065072
1!
#18227553353
0!
#18247065072
1!
#18247553353
0!
#18267065073
1!
#18267553354
0!
#18287065072
1!
#18287553354
0!
#18307065072
1!
#18307553353
0!
#18327065072
1!
#18327553353
0!
#18347065073
1!
#18347553354
0!
#18367065072
1!
#18367553354
0!
#18387065072
1!
#18387553353
0!
#18407065072
1!
#18407553353
0!
#18427065073
1!
#18427553354
0!
#18447065072
1!
#18447553354
0!
#18467065072
1!
#18467553353
0!
#18487065072
1!
#18487553353
0!
#18500015783
1"
#18500015937
1#
#18507065073
1!
#18507553354
0!
#18527065072
1!
#18527553354
0!
#18547065072
1!
#18547553353
0!
#18567065072
1!
#18567553353
0!
#18587065073
1!
#18587553354
0!
#18607065072
1!
#18607553354
0!
#18627065072
1!
#18627553353
0!
#18647065072
1!
#18647553353
0!
#18667065073
1!
#18667553354
0!
#18687065072
1!
#18687553354
0!
#18707065072
1!
#18707553353
0!
#18727065072
1!
#18727553353
0!
#18747065073
1!
#18747553354
0!
#18767065072
1!
#18767553354
0!
#18787065072
1!
#18787553353
0!
#18807065072
1!
#18807553353
0!
#18827065073
1!
#18827553354
0!
#18847065072
1!
#18847553354
0!
#18867065072
1!
#18867553353
0!
#18887065072
1!
#18887553353
0!
#18907065073
1!
#18907553354
0!
#18927065072
1!
#18927553354
0!
#18947065072
1!
#18947553353
0!
#18967065072
1!
#18967553353
0!
#18987065073
1!
#18987553354
0!
#19000016601
0"
#19000016764
0#
#19007065072
1!
#19007553354
0!
#19027065072
1!
#19027553353
0!
#19047065072
1!
#19047553353
0!
#19067065073
1!
#19067553354
0!
#19087065072
1!
#19087553354
0!
#19107065072
1!
#19107553353
0!
#19127065072
1!
#19127553353
0!
#19147065073
1!
#19147553354
0!
#19167065072
1!
#19167553354
0!
#19187065072
1!
#19187553353
0!
#19207065072
1!
#19207553353
0!
#19227065073
1!
#19227553354
0!
#19247065072
1!
#19247553354
0!
#19267065072
1!
#19267553353
0!
#19287065072
1!
#19287553353
0!
#19307065073
1!
#19307553354
0!
#19327065072
1!
#19327553354
0!
#19347065072
1!
#19347553353
0!
#19367065072
1!
#19367553353
0!
#19387065073
1!
#19387553354
0!
#19407065072
1!
#19407553354
0!
#19427065072
1!
#19427553353
0!
#19447065072
1!
#19447553353
0!
