wokwi.vcd
$version Generated by Wokwi.com $end
$date Mon, 13 Apr 2026 16:34:15 GMT $end
$timescale 1ns $end
$scope module logic $end
$var wire 1 ! D0 $end
$var wire 1 " D1 $end
$var wire 1 # D2 $end
$upscope $end
$enddefinitions $end
#0
1!
#0
0"
#0
1#
#2420190271
0#
#2420389479
1"
#2420393979
1#
#2620454733
0"
#2620459483
0#
#2820428008
1"
#2820432508
1#
#3020427883
0"
#3020432633
0#
#3220428008
1"
#3220432508
1#
#3420427883
0"
#3420432633
0#
#3620723288
0!
#3640649758
1!
#3642096020
0!
#3660631176
1!
#3662096021
0!
#3680631177
1!
#3682096020
0!
#3700631177
1!
#3702096020
0!
#3720631176
1!
#3722096020
0!
#3740631176
1!
#3742096021
0!
#3760631177
1!
#3762096020
0!
#3780631177
1!
#3782096020
0!
#3800631176
1!
#3802096020
0!
#3820631176
1!
#3822096021
0!
#3840631177
1!
#3842096020
0!
#3860631177
1!
#3862096020
0!
#3880631176
1!
#3882096020
0!
#3900631176
1!
#3902096021
0!
#3920631177
1!
#3922096020
0!
#3940631177
1!
#3942096020
0!
#3960631176
1!
#3962096020
0!
#3980631176
1!
#3982096021
0!
#4000631177
1!
#4002096020
0!
#4020631177
1!
#4022096020
0!
#4040631176
1!
#4042096020
0!
#4060631176
1!
#4062096021
0!
#4080631177
1!
#4082096020
0!
#4100631177
1!
#4102096020
0!
#4120631176
1!
#4121174483
0!
#4140631176
1!
#4141158520
0!
#4160631177
1!
#4161158520
0!
#4180631177
1!
#4181158521
0!
#4200631176
1!
#4201158520
0!
#4220631176
1!
#4221158520
0!
#4240631177
1!
#4241158520
0!
#4260631177
1!
#4261158521
0!
#4280631176
1!
#4281158520
0!
#4300631176
1!
#4301158520
0!
#4320631177
1!
#4321158520
0!
#4340631177
1!
#4341158521
0!
#4360631176
1!
#4361158520
0!
#4380631176
1!
#4381158520
0!
#4400631177
1!
#4401158520
0!
#4420631177
1!
#4421158521
0!
#4440631176
1!
#4441158520
0!
#4460631176
1!
#4461158520
0!
#4480631177
1!
#4481158520
0!
#4500631177
1!
#4501158521
0!
#4520631176
1!
#4521158520
0!
#4540631176
1!
#4541158520
0!
#4560631177
1!
#4561158520
0!
#4580631177
1!
#4581158521
0!
#4600631176
1!
#4601158520
0!
#4620631176
1!
#4621158520
0!
#4640631177
1!
#4641158520
0!
#4660631177
1!
#4661158521
0!
#4680631176
1!
#4681158520
0!
#4700631176
1!
#4701158520
0!
#4720631177
1!
#4721158520
0!
#4740631177
1!
#4741158521
0!
#4760631176
1!
#4761158520
0!
#4780631176
1!
#4781158520
0!
#4800631177
1!
#4801158520
0!
#4820631177
1!
#4821158521
0!
#4840631176
1!
#4841158520
0!
#4860631176
1!
#4861158520
0!
#4880631177
1!
#4881158520
0!
#4900631177
1!
#4901158521
0!
#4920631176
1!
#4921158520
0!
#4940631176
1!
#4941158520
0!
#4960631177
1!
#4961158520
0!
#4980631177
1!
#4981158521
0!
#5000631176
1!
#5001158520
0!
#5020631176
1!
#5021158520
0!
#5040631177
1!
#5041158520
0!
#5060631177
1!
#5061158521
0!
#5080631176
1!
#5081158520
0!
#5100631176
1!
#5101158520
0!
#5120631177
1!
#5121158520
0!
#5140631177
1!
#5141158521
0!
#5160631176
1!
#5161158520
0!
#5180631176
1!
#5181158520
0!
#5200631177
1!
#5201158520
0!
#5220631177
1!
#5221158521
0!
#5240631176
1!
#5241158520
0!
#5260631176
1!
#5261158520
0!
#5280631177
1!
#5281158520
0!
#5300631177
1!
#5301158521
0!
#5320631176
1!
#5321158520
0!
#5340631176
1!
#5341158520
0!
#5360631177
1!
#5361158520
0!
#5380631177
1!
#5381158521
0!
#5400631176
1!
#5401158520
0!
#5420631176
1!
#5421158520
0!
#5440631177
1!
#5441158520
0!
#5460631177
1!
#5461158521
0!
#5480631176
1!
#5481158520
0!
#5500631176
1!
#5501158520
0!
#5520631177
1!
#5521158520
0!
#5540631177
1!
#5541158521
0!
#5560631176
1!
#5561158520
0!
#5580631176
1!
#5581158520
0!
#5600631177
1!
#5601158520
0!
#5620631177
1!
#5621158521
0!
#5640631176
1!
#5641158520
0!
#5660631176
1!
#5661158520
0!
#5680631177
1!
#5681158520
0!
#5700631177
1!
#5701158521
0!
#5720631176
1!
#5721158520
0!
#5740631176
1!
#5741158520
0!
#5760631177
1!
#5761158520
0!
#5780631177
1!
#5781158521
0!
#5800631176
1!
#5801158520
0!
#5820631176
1!
#5821158520
0!
#5840631177
1!
#5841158520
0!
#5860631177
1!
#5861158521
0!
#5866520042
1"
#5866524667
1#
#5880631176
1!
#5881158520
0!
#5900631176
1!
#5901158520
0!
#5920631177
1!
#5921158520
0!
#5940631177
1!
#5941158521
0!
#5960631176
1!
#5961158520
0!
#5980631176
1!
#5981158520
0!
#6000631177
1!
#6001158520
0!
#6020631177
1!
#6021158521
0!
#6040631176
1!
#6041158520
0!
#6060631176
1!
#6061158520
0!
#6080631177
1!
#6081158520
0!
#6096579333
0"
#6096584208
0#
#6100631177
1!
#6101158521
0!
#6120631176
1!
#6121158520
0!
#6140631176
1!
#6141158520
0!
#6160631177
1!
#6161158520
0!
#6180631177
1!
#6181158521
0!
#6200631176
1!
#6201158520
0!
#6220631176
1!
#6221158520
0!
#6240631177
1!
#6241158520
0!
#6260631177
1!
#6261158521
0!
#6280631176
1!
#6281158520
0!
#6300631176
1!
#6301158520
0!
#6320631177
1!
#6321158520
0!
#6340631177
1!
#6341158521
0!
#6360631176
1!
#6361158520
0!
#6380631176
1!
#6381158520
0!
#6400631177
1!
#6401158520
0!
#6420631177
1!
#6421158521
0!
#6440631176
1!
#6441158520
0!
#6460631176
1!
#6461158520
0!
#6480631177
1!
#6481158520
0!
#6500018115
1"
#6500018269
1#
#6500631177
1!
#6501158521
0!
#6520631176
1!
#6521158520
0!
#6540631176
1!
#6541158520
0!
#6560631177
1!
#6561158520
0!
#6580631177
1!
#6581158521
0!
#6600631176
1!
#6601158520
0!
#6620631176
1!
#6621158520
0!
#6640631177
1!
#6641158520
0!
#6660631177
1!
#6661158521
0!
#6680631176
1!
#6681158520
0!
#6700631176
1!
#6701158520
0!
#6720631177
1!
#6721158520
0!
#6740631177
1!
#6741158521
0!
#6760631176
1!
#6761158520
0!
#6780631176
1!
#6781158520
0!
#6800631177
1!
#6801158520
0!
#6820631177
1!
#6821158521
0!
#6840631176
1!
#6841158520
0!
#6860631176
1!
#6861158520
0!
#6880631177
1!
#6881158520
0!
#6900631177
1!
#6901158521
0!
#6920631176
1!
#6921158520
0!
#6940631176
1!
#6941158520
0!
#6960631177
1!
#6961158520
0!
#6980631177
1!
#6981158521
0!
#7000015830
0"
#7000015992
0#
#7000631176
1!
#7001158520
0!
#7020631176
1!
#7021158520
0!
#7040631177
1!
#7041158520
0!
#7060631177
1!
#7061158521
0!
#7080631176
1!
#7081158520
0!
#7100631176
1!
#7101158520
0!
#7120631177
1!
#7121158520
0!
#7140631177
1!
#7141158521
0!
#7160631176
1!
#7161158520
0!
#7180631176
1!
#7181158520
0!
#7200631177
1!
#7201158520
0!
#7220631177
1!
#7221158521
0!
#7240631176
1!
#7241158520
0!
#7260631176
1!
#7261158520
0!
#7280631177
1!
#7281158520
0!
#7300631177
1!
#7301158521
0!
#7320631176
1!
#7321158520
0!
#7340631176
1!
#7341158520
0!
#7360631177
1!
#7361158520
0!
#7380631177
1!
#7381158521
0!
#7400631176
1!
#7401158520
0!
#7420631176
1!
#7421158520
0!
#7440631177
1!
#7441158520
0!
#7460631177
1!
#7461158521
0!
#7480631176
1!
#7481158520
0!
#7500009919
1"
#7500010074
1#
#7500631176
1!
#7501158520
0!
#7520631177
1!
#7521158520
0!
#7540631177
1!
#7541158521
0!
#7560631176
1!
#7561158520
0!
#7580631176
1!
#7581158520
0!
#7600631177
1!
#7601158520
0!
#7620631177
1!
#7621158521
0!
#7640631176
1!
#7641158520
0!
#7660631176
1!
#7661158520
0!
#7680631177
1!
#7681158520
0!
#7700631177
1!
#7701158521
0!
#7720631176
1!
#7721158520
0!
#7740631176
1!
#7741158520
0!
#7760631177
1!
#7761158520
0!
#7780631177
1!
#7781158521
0!
#7800631176
1!
#7801158520
0!
#7820631176
1!
#7821158520
0!
#7840631177
1!
#7841158520
0!
#7860631177
1!
#7861158521
0!
#7880631176
1!
#7881158520
0!
#7900631176
1!
#7901158520
0!
#7920631177
1!
#7921158520
0!
#7940631177
1!
#7941158521
0!
#7960631176
1!
#7961158520
0!
#7980631176
1!
#7981158520
0!
#8000631177
1!
#8001158520
0!
#8020631177
1!
#8021158521
0!
#8040631176
1!
#8041158520
0!
#8060631176
1!
#8061158520
0!
#8063593975
0"
#8063598850
0#
#8080631177
1!
#8081158520
0!
#8100631177
1!
#8101158521
0!
#8120631176
1!
#8121158520
0!
#8140631176
1!
#8141158520
0!
#8160631177
1!
#8161158520
0!
#8180631177
1!
#8181158521
0!
#8200631176
1!
#8201158520
0!
#8220631176
1!
#8221158520
0!
#8240631177
1!
#8241158520
0!
#8260631177
1!
#8261158521
0!
#8280631176
1!
#8281158520
0!
#8300631176
1!
#8301158520
0!
#8320631177
1!
#8321158520
0!
#8340631177
1!
#8341158521
0!
#8360631176
1!
#8361158520
0!
#8380631176
1!
#8381158520
0!
#8400631177
1!
#8401158520
0!
#8420631177
1!
#8421158521
0!
#8440631176
1!
#8441158520
0!
#8460631176
1!
#8461158520
0!
#8480631177
1!
#8481158520
0!
#8500009919
1"
#8500010073
1#
#8500631177
1!
#8501158521
0!
#8520631176
1!
#8521158520
0!
#8540631176
1!
#8541158520
0!
#8560631177
1!
#8561158520
0!
#8580631177
1!
#8581158521
0!
#8600631176
1!
#8601158520
0!
#8620631176
1!
#8621158520
0!
#8640631177
1!
#8641158520
0!
#8660631177
1!
#8661158521
0!
#8680631176
1!
#8681158520
0!
#8700631176
1!
#8701158520
0!
#8720631177
1!
#8721158520
0!
#8740631177
1!
#8741158521
0!
#8760631176
1!
#8761158520
0!
#8780631176
1!
#8781158520
0!
#8800631177
1!
#8801158520
0!
#8820631177
1!
#8821158521
0!
#8840631176
1!
#8841158520
0!
#8860631176
1!
#8861158520
0!
#8880631177
1!
#8881158520
0!
#8900631177
1!
#8901158521
0!
#8920631176
1!
#8921158520
0!
#8940631176
1!
#8941158520
0!
#8960631177
1!
#8961158520
0!
#8980631177
1!
#8981158521
0!
#9000019670
0"
#9000019832
0#
#9000631176
1!
#9001158520
0!
#9020631176
1!
#9021158520
0!
#9040631177
1!
#9041158520
0!
#9060631177
1!
#9061158521
0!
#9080631176
1!
#9081158520
0!
#9100631176
1!
#9101158520
0!
#9120631177
1!
#9121158520
0!
#9140631177
1!
#9141158521
0!
#9160631176
1!
#9161158520
0!
#9180631176
1!
#9181158520
0!
#9200631177
1!
#9201158520
0!
#9220631177
1!
#9221158521
0!
#9240631176
1!
#9241158520
0!
#9260631176
1!
#9261158520
0!
#9280631177
1!
#9281158520
0!
#9300631177
1!
#9301158521
0!
#9320631176
1!
#9321158520
0!
#9340631176
1!
#9341158520
0!
#9360631177
1!
#9361158520
0!
#9380631177
1!
#9381158521
0!
#9400631176
1!
#9401158520
0!
#9420631176
1!
#9421158520
0!
#9440631177
1!
#9441158520
0!
#9460631177
1!
#9461158521
0!
#9480631176
1!
#9481158520
0!
#9500009923
1"
#9500010078
1#
#9500631176
1!
#9501158520
0!
#9520631177
1!
#9521158520
0!
#9540631177
1!
#9541158521
0!
#9560631176
1!
#9561158520
0!
#9580631176
1!
#9581158520
0!
#9600631177
1!
#9601158520
0!
#9620631177
1!
#9621158521
0!
#9640631176
1!
#9641158520
0!
#9660631176
1!
#9661158520
0!
#9680631177
1!
#9681158520
0!
#9700631177
1!
#9701158521
0!
#9720631176
1!
#9721158520
0!
#9740631176
1!
#9741158520
0!
#9760631177
1!
#9761158520
0!
#9780631177
1!
#9781158521
0!
#9800631176
1!
#9801158520
0!
#9820631176
1!
#9821158520
0!
#9840631177
1!
#9841158520
0!
#9860631177
1!
#9861158521
0!
#9880631176
1!
#9881158520
0!
#9900631176
1!
#9901158520
0!
#9920631177
1!
#9921158520
0!
#9940631177
1!
#9941158521
0!
#9960631176
1!
#9961158520
0!
#9980631176
1!
#9981158520
0!
#10000631177
1!
#10001158520
0!
#10020631177
1!
#10021158521
0!
#10040631176
1!
#10041158520
0!
#10046585924
0"
#10046590799
0#
#10060631176
1!
#10061158520
0!
#10080631177
1!
#10081158520
0!
#10100631177
1!
#10101158521
0!
#10120631176
1!
#10121158520
0!
#10140631176
1!
#10141158520
0!
#10160631177
1!
#10161158520
0!
#10180631177
1!
#10181158521
0!
#10200631176
1!
#10201158520
0!
#10220631176
1!
#10221158520
0!
#10240631177
1!
#10241158520
0!
#10260631177
1!
#10261158521
0!
#10280631176
1!
#10281158520
0!
#10300631176
1!
#10301158520
0!
#10320631177
1!
#10321158520
0!
#10340631177
1!
#10341158521
0!
#10360631176
1!
#10361158520
0!
#10380631176
1!
#10381158520
0!
#10400631177
1!
#10401158520
0!
#10420631177
1!
#10421158521
0!
#10440631176
1!
#10441158520
0!
#10460631176
1!
#10461158520
0!
#10480631177
1!
#10481158520
0!
#10500009923
1"
#10500010078
1#
#10500631177
1!
#10501158521
0!
#10520631176
1!
#10521158520
0!
#10540631176
1!
#10541158520
0!
#10560631177
1!
#10561158520
0!
#10580631177
1!
#10581158521
0!
#10600631176
1!
#10601158520
0!
#10620631176
1!
#10621158520
0!
#10640631177
1!
#10641158520
0!
#10660631177
1!
#10661158521
0!
#10680631176
1!
#10681158520
0!
#10700631176
1!
#10701158520
0!
#10720631177
1!
#10721158520
0!
#10740631177
1!
#10741158521
0!
#10760631176
1!
#10761158520
0!
#10780631176
1!
#10781158520
0!
#10800631177
1!
#10801158520
0!
#10820631177
1!
#10821158521
0!
#10840631176
1!
#10841158520
0!
#10860631176
1!
#10861158520
0!
#10880631177
1!
#10881158520
0!
#10900631177
1!
#10901158521
0!
#10920631176
1!
#10921158520
0!
#10940631176
1!
#10941158520
0!
#10960631177
1!
#10961158520
0!
#10980631177
1!
#10981158521
0!
#11000015860
0"
#11000016023
0#
#11000631176
1!
#11001158520
0!
#11020631176
1!
#11021158520
0!
#11040631177
1!
#11041158520
0!
#11060631177
1!
#11061158521
0!
#11080631176
1!
#11081158520
0!
#11100631176
1!
#11101158520
0!
#11120631177
1!
#11121158520
0!
#11140631177
1!
#11141158521
0!
#11160631176
1!
#11161158520
0!
#11180631176
1!
#11181158520
0!
#11200631177
1!
#11201158520
0!
#11220631177
1!
#11221158521
0!
#11240631176
1!
#11241158520
0!
#11260631176
1!
#11261158520
0!
#11280631177
1!
#11281158520
0!
#11300631177
1!
#11301158521
0!
#11320631176
1!
#11321158520
0!
#11340631176
1!
#11341158520
0!
#11360631177
1!
#11361158520
0!
#11380631177
1!
#11381158521
0!
#11400631176
1!
#11401158520
0!
#11420631176
1!
#11421158520
0!
#11440631177
1!
#11441158520
0!
#11460631177
1!
#11461158521
0!
#11480631176
1!
#11481158520
0!
#11500018176
1"
#11500018330
1#
#11500631176
1!
#11501158520
0!
#11520631177
1!
#11521158520
0!
#11540631177
1!
#11541158521
0!
#11560631176
1!
#11561158520
0!
#11580631176
1!
#11581158520
0!
#11600631177
1!
#11601158520
0!
#11620631177
1!
#11621158521
0!
#11640631176
1!
#11641158520
0!
#11660631176
1!
#11661158520
0!
#11680631177
1!
#11681158520
0!
#11700631177
1!
#11701158521
0!
#11720631176
1!
#11721158520
0!
#11740631176
1!
#11741158520
0!
#11760631177
1!
#11761158520
0!
#11780631177
1!
#11781158521
0!
#11800631176
1!
#11801158520
0!
#11820631176
1!
#11821158520
0!
#11840631177
1!
#11841158520
0!
#11860631177
1!
#11861158521
0!
#11880631176
1!
#11881158520
0!
#11900631176
1!
#11901158520
0!
#11920631177
1!
#11921158520
0!
#11940631177
1!
#11941158521
0!
#11960631176
1!
#11961158520
0!
#11980631176
1!
#11981158520
0!
#12000631177
1!
#12001158520
0!
#12020631177
1!
#12021158521
0!
#12040631176
1!
#12041158520
0!
#12060631176
1!
#12061158520
0!
#12063599952
0"
#12063604827
0#
#12080631177
1!
#12081158520
0!
#12100631177
1!
#12101158521
0!
#12120631176
1!
#12121158520
0!
#12140631176
1!
#12141158520
0!
#12160631177
1!
#12161158520
0!
#12180631177
1!
#12181158521
0!
#12200631176
1!
#12201158520
0!
#12220631176
1!
#12221158520
0!
#12240631177
1!
#12241158520
0!
#12260631177
1!
#12261158521
0!
#12280631176
1!
#12281158520
0!
#12300631176
1!
#12301158520
0!
#12320631177
1!
#12321158520
0!
#12340631177
1!
#12341158521
0!
#12360631176
1!
#12361158520
0!
#12380631176
1!
#12381158520
0!
#12400631177
1!
#12401158520
0!
#12420631177
1!
#12421158521
0!
#12440631176
1!
#12441158520
0!
#12460631176
1!
#12461158520
0!
#12480631177
1!
#12481158520
0!
#12500009952
1"
#12500010106
1#
#12500631177
1!
#12501158521
0!
#12520631176
1!
#12521158520
0!
#12540631176
1!
#12541158520
0!
#12560631177
1!
#12561158520
0!
#12580631177
1!
#12581158521
0!
#12600631176
1!
#12601158520
0!
#12620631176
1!
#12621158520
0!
#12640631177
1!
#12641158520
0!
#12660631177
1!
#12661158521
0!
#12680631176
1!
#12681158520
0!
#12700631176
1!
#12701158520
0!
#12720631177
1!
#12721158520
0!
#12740631177
1!
#12741158521
0!
#12760631176
1!
#12761158520
0!
#12780631176
1!
#12781158520
0!
#12800631177
1!
#12801158520
0!
#12820631177
1!
#12821158521
0!
#12840631176
1!
#12841158520
0!
#12860631176
1!
#12861158520
0!
#12880631177
1!
#12881158520
0!
#12900631177
1!
#12901158521
0!
#12920631176
1!
#12921158520
0!
#12940631176
1!
#12941158520
0!
#12960631177
1!
#12961158520
0!
#12980631177
1!
#12981158521
0!
#13000015851
0"
#13000016013
0#
#13000631176
1!
#13001158520
0!
#13020631176
1!
#13021158520
0!
#13040631177
1!
#13041158520
0!
#13060631177
1!
#13061158521
0!
#13080631176
1!
#13081158520
0!
#13100631176
1!
#13101158520
0!
#13120631177
1!
#13121158520
0!
#13140631177
1!
#13141158521
0!
#13160631176
1!
#13161158520
0!
#13180631176
1!
#13181158520
0!
#13200631177
1!
#13201158520
0!
#13220631177
1!
#13221158521
0!
#13240631176
1!
#13241158520
0!
#13260631176
1!
#13261158520
0!
#13280631177
1!
#13281158520
0!
#13300631177
1!
#13301158521
0!
#13320631176
1!
#13321158520
0!
#13340631176
1!
#13341158520
0!
#13360631177
1!
#13361158520
0!
#13380631177
1!
#13381158521
0!
#13400631176
1!
#13401158520
0!
#13420631176
1!
#13421158520
0!
#13440631177
1!
#13441158520
0!
#13460631177
1!
#13461158521
0!
#13480631176
1!
#13481158520
0!
#13500010013
1"
#13500010167
1#
#13500631176
1!
#13501158520
0!
#13520631177
1!
#13521158520
0!
#13540631177
1!
#13541158521
0!
#13560631176
1!
#13561158520
0!
#13580631176
1!
#13581158520
0!
#13600631177
1!
#13601158520
0!
#13620631177
1!
#13621158521
0!
#13640631176
1!
#13641158520
0!
#13660631176
1!
#13661158520
0!
#13680631177
1!
#13681158520
0!
#13700631177
1!
#13701158521
0!
#13720631176
1!
#13721158520
0!
#13740631176
1!
#13741158520
0!
#13760631177
1!
#13761158520
0!
#13780631177
1!
#13781158521
0!
#13800631176
1!
#13801158520
0!
#13820631176
1!
#13821158520
0!
#13840631177
1!
#13841158520
0!
#13860631177
1!
#13861158521
0!
#13880631176
1!
#13881158520
0!
#13900631176
1!
#13901158520
0!
#13920631177
1!
#13921158520
0!
#13940631177
1!
#13941158521
0!
#13960631176
1!
#13961158520
0!
#13980631176
1!
#13981158520
0!
#14000631177
1!
#14001158520
0!
#14020631177
1!
#14021158521
0!
#14040631176
1!
#14041158520
0!
#14046606554
0"
#14046611429
0#
#14060631176
1!
#14061158520
0!
#14080631177
1!
#14081158520
0!
#14100631177
1!
#14101158521
0!
#14120631176
1!
#14121158520
0!
#14140631176
1!
#14141158520
0!
#14160631177
1!
#14161158520
0!
#14180631177
1!
#14181158521
0!
#14200631176
1!
#14201158520
0!
#14220631176
1!
#14221158520
0!
#14240631177
1!
#14241158520
0!
#14260631177
1!
#14261158521
0!
#14280631176
1!
#14281158520
0!
#14300631176
1!
#14301158520
0!
#14320631177
1!
#14321158520
0!
#14340631177
1!
#14341158521
0!
#14360631176
1!
#14361158520
0!
#14380631176
1!
#14381158520
0!
#14400631177
1!
#14401158520
0!
#14420631177
1!
#14421158521
0!
#14440631176
1!
#14441158520
0!
#14460631176
1!
#14461158520
0!
#14480631177
1!
#14481158520
0!
#14500010012
1"
#14500010166
1#
#14500631177
1!
#14501158521
0!
#14520631176
1!
#14521158520
0!
#14540631176
1!
#14541158520
0!
#14560631177
1!
#14561158520
0!
#14580631177
1!
#14581158521
0!
#14600631176
1!
#14601158520
0!
#14620631176
1!
#14621158520
0!
#14640631177
1!
#14641158520
0!
#14660631177
1!
#14661158521
0!
#14680631176
1!
#14681158520
0!
#14700631176
1!
#14701158520
0!
#14720631177
1!
#14721158520
0!
#14740631177
1!
#14741158521
0!
#14760631176
1!
#14761158520
0!
#14780631176
1!
#14781158520
0!
#14800631177
1!
#14801158520
0!
#14820631177
1!
#14821158521
0!
#14840631176
1!
#14841158520
0!
#14860631176
1!
#14861158520
0!
#14880631177
1!
#14881158520
0!
#14900631177
1!
#14901158521
0!
#14920631176
1!
#14921158520
0!
#14940631176
1!
#14941158520
0!
#14960631177
1!
#14961158520
0!
#14980631177
1!
#14981158521
0!
#15000015861
0"
#15000016024
0#
#15000631176
1!
#15001158520
0!
#15020631176
1!
#15021158520
0!
#15040631177
1!
#15041158520
0!
#15060631177
1!
#15061158521
0!
#15080631176
1!
#15081158520
0!
#15100631176
1!
#15101158520
0!
#15120631177
1!
#15121158520
0!
#15140631177
1!
#15141158521
0!
#15160631176
1!
#15161158520
0!
#15180631176
1!
#15181158520
0!
#15200631177
1!
#15201158520
0!
#15220631177
1!
#15221158521
0!
#15240631176
1!
#15241158520
0!
#15260631176
1!
#15261158520
0!
#15280631177
1!
#15281158520
0!
#15300631177
1!
#15301158521
0!
#15320631176
1!
#15321158520
0!
#15340631176
1!
#15341158520
0!
#15360631177
1!
#15361158520
0!
#15380631177
1!
#15381158521
0!
#15400631176
1!
#15401158520
0!
#15420631176
1!
#15421158520
0!
#15440631177
1!
#15441158520
0!
#15460631177
1!
#15461158521
0!
#15480631176
1!
#15481158520
0!
#15500013040
1"
#15500013194
1#
#15500631176
1!
#15501158520
0!
#15520631177
1!
#15521158520
0!
#15540631177
1!
#15541158521
0!
#15560631176
1!
#15561158520
0!
#15580631176
1!
#15581158520
0!
#15600631177
1!
#15601158520
0!
#15620631177
1!
#15621158521
0!
#15640631176
1!
#15641158520
0!
#15660631176
1!
#15661158520
0!
#15680631177
1!
#15681158520
0!
#15700631177
1!
#15701158521
0!
#15720631176
1!
#15721158520
0!
#15740631176
1!
#15741158520
0!
#15760631177
1!
#15761158520
0!
#15780631177
1!
#15781158521
0!
#15800631176
1!
#15801158520
0!
#15820631176
1!
#15821158520
0!
#15840631177
1!
#15841158520
0!
#15860631177
1!
#15861158521
0!
#15880631176
1!
#15881158520
0!
#15900631176
1!
#15901158520
0!
#15920631177
1!
#15921158520
0!
#15940631177
1!
#15941158521
0!
#15960631176
1!
#15961158520
0!
#15980631176
1!
#15981158520
0!
#16000631177
1!
#16001158520
0!
#16020631177
1!
#16021158521
0!
#16040631176
1!
#16041158520
0!
#16060631176
1!
#16061158520
0!
#16063599953
0"
#16063604828
0#
#16080631177
1!
#16081158520
0!
#16100631177
1!
#16101158521
0!
#16120631176
1!
#16121158520
0!
#16140631176
1!
#16141158520
0!
#16160631177
1!
#16161158520
0!
#16180631177
1!
#16181158521
0!
#16200631176
1!
#16201158520
0!
#16220631176
1!
#16221158520
0!
#16240631177
1!
#16241158520
0!
#16260631177
1!
#16261158521
0!
#16280631176
1!
#16281158520
0!
#16300631176
1!
#16301158520
0!
#16320631177
1!
#16321158520
0!
#16340631177
1!
#16341158521
0!
#16360631176
1!
#16361158520
0!
#16380631176
1!
#16381158520
0!
#16400631177
1!
#16401158520
0!
#16420631177
1!
#16421158521
0!
#16440631176
1!
#16441158520
0!
#16460631176
1!
#16461158520
0!
#16480631177
1!
#16481158520
0!
#16500018119
1"
#16500018273
1#
#16500631177
1!
#16501158521
0!
#16520631176
1!
#16521158520
0!
#16540631176
1!
#16541158520
0!
#16560631177
1!
#16561158520
0!
#16580631177
1!
#16581158521
0!
#16600631176
1!
#16601158520
0!
#16620631176
1!
#16621158520
0!
#16640631177
1!
#16641158520
0!
#16660631177
1!
#16661158521
0!
#16680631176
1!
#16681158520
0!
#16700631176
1!
#16701158520
0!
#16720631177
1!
#16721158520
0!
#16740631177
1!
#16741158521
0!
#16760631176
1!
#16761158520
0!
#16780631176
1!
#16781158520
0!
#16800631177
1!
#16801158520
0!
#16820631177
1!
#16821158521
0!
#16840631176
1!
#16841158520
0!
#16860631176
1!
#16861158520
0!
#16880631177
1!
#16881158520
0!
#16900631177
1!
#16901158521
0!
#16920631176
1!
#16921158520
0!
#16940631176
1!
#16941158520
0!
#16960631177
1!
#16961158520
0!
#16980631177
1!
#16981158521
0!
#17000015848
0"
#17000016010
0#
#17000631176
1!
#17001158520
0!
#17020631176
1!
#17021158520
0!
#17040631177
1!
#17041158520
0!
#17060631177
1!
#17061158521
0!
#17080631176
1!
#17081158520
0!
#17100631176
1!
#17101158520
0!
#17120631177
1!
#17121158520
0!
#17140631177
1!
#17141158521
0!
#17160631176
1!
#17161158520
0!
#17180631176
1!
#17181158520
0!
#17200631177
1!
#17201158520
0!
#17220631177
1!
#17221158521
0!
#17240631176
1!
#17241158520
0!
#17260631176
1!
#17261158520
0!
#17280631177
1!
#17281158520
0!
#17300631177
1!
#17301158521
0!
#17320631176
1!
#17321158520
0!
#17340631176
1!
#17341158520
0!
#17360631177
1!
#17361158520
0!
#17380631177
1!
#17381158521
0!
#17400631176
1!
#17401158520
0!
#17420631176
1!
#17421158520
0!
#17440631177
1!
#17441158520
0!
#17460631177
1!
#17461158521
0!
#17480631176
1!
#17481158520
0!
#17500010265
1"
#17500010419
1#
#17500631176
1!
#17501158520
0!
#17520631177
1!
#17521158520
0!
#17540631177
1!
#17541158521
0!
#17560631176
1!
#17561158520
0!
#17580631176
1!
#17581158520
0!
#17600631177
1!
#17601158520
0!
#17620631177
1!
#17621158521
0!
#17640631176
1!
#17641158520
0!
#17660631176
1!
#17661158520
0!
#17680631177
1!
#17681158520
0!
#17700631177
1!
#17701158521
0!
#17720631176
1!
#17721158520
0!
#17740631176
1!
#17741158520
0!
#17760631177
1!
#17761158520
0!
#17780631177
1!
#17781158521
0!
#17800631176
1!
#17801158520
0!
#17820631176
1!
#17821158520
0!
#17840631177
1!
#17841158520
0!
#17860631177
1!
#17861158521
0!
#17880631176
1!
#17881158520
0!
#17900631176
1!
#17901158520
0!
#17920631177
1!
#17921158520
0!
#17940631177
1!
#17941158521
0!
#17960631176
1!
#17961158520
0!
#17980631176
1!
#17981158520
0!
#18000631177
1!
#18001158520
0!
#18020631177
1!
#18021158521
0!
#18040631176
1!
#18041158520
0!
#18060631176
1!
#18061080248
0"
#18061085123
0#
#18061158520
0!
#18080631177
1!
#18081158520
0!
#18100631177
1!
#18101158521
0!
#18120631176
1!
#18121158520
0!
#18140631176
1!
#18141158520
0!
#18160631177
1!
#18161158520
0!
#18180631177
1!
#18181158521
0!
#18200631176
1!
#18201158520
0!
#18220631176
1!
#18221158520
0!
#18240631177
1!
#18241158520
0!
#18260631177
1!
#18261158521
0!
#18280631176
1!
#18281158520
0!
#18300631176
1!
#18301158520
0!
#18320631177
1!
#18321158520
0!
#18340631177
1!
#18341158521
0!
#18360631176
1!
#18361158520
0!
#18380631176
1!
#18381158520
0!
#18400631177
1!
#18401158520
0!
#18420631177
1!
#18421158521
0!
#18440631176
1!
#18441158520
0!
#18460631176
1!
#18461158520
0!
#18480631177
1!
#18481158520
0!
#18500018952
1"
#18500019106
1#
#18500631177
1!
#18501158521
0!
#18520631176
1!
#18521158520
0!
#18540631176
1!
#18541158520
0!
#18560631177
1!
#18561158520
0!
#18580631177
1!
#18581158521
0!
#18600631176
1!
#18601158520
0!
#18620631176
1!
#18621158520
0!
#18640631177
1!
#18641158520
0!
#18660631177
1!
#18661158521
0!
#18680631176
1!
#18681158520
0!
#18700631176
1!
#18701158520
0!
#18720631177
1!
#18721158520
0!
#18740631177
1!
#18741158521
0!
#18760631176
1!
#18761158520
0!
#18780631176
1!
#18781158520
0!
#18800631177
1!
#18801158520
0!
#18820631177
1!
#18821158521
0!
#18840631176
1!
#18841158520
0!
#18860631176
1!
#18861158520
0!
#18880631177
1!
#18881158520
0!
#18900631177
1!
#18901158521
0!
#18920631176
1!
#18921158520
0!
#18940631176
1!
#18941158520
0!
#18960631177
1!
#18961158520
0!
#18980631177
1!
#18981158521
0!
#19000015854
0"
#19000016016
0#
#19000631176
1!
#19001158520
0!
#19020631176
1!
#19021158520
0!
#19040631177
1!
#19041158520
0!
#19060631177
1!
#19061158521
0!
#19080631176
1!
#19081158520
0!
#19100631176
1!
#19101158520
0!
#19120631177
1!
#19121158520
0!
#19140631177
1!
#19141158521
0!
#19160631176
1!
#19161158520
0!
#19180631176
1!
#19181158520
0!
#19200631177
1!
#19201158520
0!
#19220631177
1!
#19221158521
0!
#19240631176
1!
#19241158520
0!
#19260631176
1!
#19261158520
0!
#19280631177
1!
#19281158520
0!
#19300631177
1!
#19301158521
0!
#19320631176
1!
#19321158520
0!
#19340631176
1!
#19341158520
0!
#19360631177
1!
#19361158520
0!
#19380631177
1!
#19381158521
0!
#19400631176
1!
#19401158520
0!
#19420631176
1!
