wokwi.vcd
$version Generated by Wokwi.com $end
$date Thu, 23 Apr 2026 08:49:43 GMT $end
$timescale 1ns $end
$scope module logic $end
$var wire 1 ! D0 $end
$var wire 1 " D1 $end
$var wire 1 # D2 $end
$upscope $end
$enddefinitions $end
#0
1!
#0
0"
#0
1#
#2432302442
0#
#2432504233
1"
#2432508733
1#
#2632540429
0"
#2632545179
0#
#2832540554
1"
#2832545054
1#
#3032540429
0"
#3032545179
0#
#3232540554
1"
#3232545054
1#
#3432540429
0"
#3432545179
0#
#3633189083
0!
#3653106035
1!
#3654542285
0!
#3673096972
1!
#3674542284
0!
#3693096972
1!
#3694542285
0!
#3713096973
1!
#3714542285
0!
#3733096972
1!
#3734542285
0!
#3753096972
1!
#3754542284
0!
#3773096972
1!
#3774542285
0!
#3793096973
1!
#3794542285
0!
#3813096972
1!
#3814542285
0!
#3833096972
1!
#3834542284
0!
#3853096972
1!
#3854542285
0!
#3873096973
1!
#3874542285
0!
#3893096972
1!
#3894542285
0!
#3913096972
1!
#3914542284
0!
#3933096972
1!
#3934542285
0!
#3953096973
1!
#3954542285
0!
#3973096972
1!
#3974542285
0!
#3993096972
1!
#3994542284
0!
#4013096972
1!
#4014542285
0!
#4033096973
1!
#4034542285
0!
#4053096972
1!
#4054542285
0!
#4073096972
1!
#4074542284
0!
#4093096972
1!
#4094542285
0!
#4113096973
1!
#4114542285
0!
#4133096972
1!
#4153600685
0!
#4173096972
1!
#4173585253
0!
#4193096973
1!
#4193585254
0!
#4213096972
1!
#4213585254
0!
#4233096972
1!
#4233585253
0!
#4253096972
1!
#4253585253
0!
#4273096973
1!
#4273585254
0!
#4293096972
1!
#4293585254
0!
#4313096972
1!
#4313585253
0!
#4333096972
1!
#4333585253
0!
#4353096973
1!
#4353585254
0!
#4373096972
1!
#4373585254
0!
#4393096972
1!
#4393585253
0!
#4413096972
1!
#4413585253
0!
#4433096973
1!
#4433585254
0!
#4453096972
1!
#4453585254
0!
#4473096972
1!
#4473585253
0!
#4493096972
1!
#4493585253
0!
#4513096973
1!
#4513585254
0!
#4533096972
1!
#4533585254
0!
#4553096972
1!
#4553585253
0!
#4573096972
1!
#4573585253
0!
#4593096973
1!
#4593585254
0!
#4613096972
1!
#4613585254
0!
#4633096972
1!
#4633585253
0!
#4653096972
1!
#4653585253
0!
#4673096973
1!
#4673585254
0!
#4693096972
1!
#4693585254
0!
#4713096972
1!
#4713585253
0!
#4733096972
1!
#4733585253
0!
#4753096973
1!
#4753585254
0!
#4773096972
1!
#4773585254
0!
#4793096972
1!
#4793585253
0!
#4813096972
1!
#4813585253
0!
#4833096973
1!
#4833585254
0!
#4853096972
1!
#4853585254
0!
#4873096972
1!
#4873585253
0!
#4893096972
1!
#4893585253
0!
#4913096973
1!
#4913585254
0!
#4933096972
1!
#4933585254
0!
#4953096972
1!
#4953585253
0!
#4973096972
1!
#4973585253
0!
#4993096973
1!
#4993585254
0!
#5013096972
1!
#5013585254
0!
#5033096972
1!
#5033585253
0!
#5053096972
1!
#5053585253
0!
#5073096973
1!
#5073585254
0!
#5093096972
1!
#5093585254
0!
#5113096972
1!
#5113585253
0!
#5133096972
1!
#5133585253
0!
#5153096973
1!
#5153585254
0!
#5173096972
1!
#5173585254
0!
#5193096972
1!
#5193585253
0!
#5213096972
1!
#5213585253
0!
#5233096973
1!
#5233585254
0!
#5253096972
1!
#5253585254
0!
#5273096972
1!
#5273585253
0!
#5293096972
1!
#5293585253
0!
#5313096973
1!
#5313585254
0!
#5333096972
1!
#5333585254
0!
#5353096972
1!
#5353585253
0!
#5373096972
1!
#5373585253
0!
#5393096973
1!
#5393585254
0!
#5413096972
1!
#5413585254
0!
#5433096972
1!
#5433585253
0!
#5453096972
1!
#5453585253
0!
#5473096973
1!
#5473585254
0!
#5493096972
1!
#5493585254
0!
#5513096972
1!
#5513585253
0!
#5533096972
1!
#5533585253
0!
#5553096973
1!
#5553585254
0!
#5573096972
1!
#5573585254
0!
#5593096972
1!
#5593585253
0!
#5613096972
1!
#5613585253
0!
#5633096973
1!
#5633585254
0!
#5653096972
1!
#5653585254
0!
#5673096972
1!
#5673585253
0!
#5693096972
1!
#5693585253
0!
#5713096973
1!
#5713585254
0!
#5733096972
1!
#5733585254
0!
#5753096972
1!
#5753585253
0!
#5773096972
1!
#5773585253
0!
#5793096973
1!
#5793585254
0!
#5813096972
1!
#5813585254
0!
#5833096972
1!
#5833585253
0!
#5853096972
1!
#5853585253
0!
#5873096973
1!
#5873585254
0!
#5880626196
1"
#5880630821
1#
#5893096972
1!
#5893585254
0!
#5913096972
1!
#5913585253
0!
#5933096972
1!
#5933585253
0!
#5953096973
1!
#5953585254
0!
#5973096972
1!
#5973585254
0!
#5993096972
1!
#5993585253
0!
#6013096972
1!
#6013585253
0!
#6033096973
1!
#6033585254
0!
#6053096972
1!
#6053585254
0!
#6073096972
1!
#6073585253
0!
#6093096972
1!
#6093585253
0!
#6113096973
1!
#6113585254
0!
#6131946321
0"
#6131951196
0#
#6133096972
1!
#6133585254
0!
#6153096972
1!
#6153585253
0!
#6173096972
1!
#6173585253
0!
#6193096973
1!
#6193585254
0!
#6213096972
1!
#6213585254
0!
#6233096972
1!
#6233585253
0!
#6253096972
1!
#6253585253
0!
#6273096973
1!
#6273585254
0!
#6293096972
1!
#6293585254
0!
#6313096972
1!
#6313585253
0!
#6333096972
1!
#6333585253
0!
#6353096973
1!
#6353585254
0!
#6373096972
1!
#6373585254
0!
#6393096972
1!
#6393585253
0!
#6413096972
1!
#6413585253
0!
#6433096973
1!
#6433585254
0!
#6453096972
1!
#6453585254
0!
#6473096972
1!
#6473585253
0!
#6493096972
1!
#6493585253
0!
#6500175596
1"
#6500175751
1#
#6513096973
1!
#6513585254
0!
#6533096972
1!
#6533585254
0!
#6553096972
1!
#6553585253
0!
#6573096972
1!
#6573585253
0!
#6593096973
1!
#6593585254
0!
#6613096972
1!
#6613585254
0!
#6633096972
1!
#6633585253
0!
#6653096972
1!
#6653585253
0!
#6673096973
1!
#6673585254
0!
#6693096972
1!
#6693585254
0!
#6713096972
1!
#6713585253
0!
#6733096972
1!
#6733585253
0!
#6753096973
1!
#6753585254
0!
#6773096972
1!
#6773585254
0!
#6793096972
1!
#6793585253
0!
#6813096972
1!
#6813585253
0!
#6833096973
1!
#6833585254
0!
#6853096972
1!
#6853585254
0!
#6873096972
1!
#6873585253
0!
#6893096972
1!
#6893585253
0!
#6913096973
1!
#6913585254
0!
#6933096972
1!
#6933585254
0!
#6953096972
1!
#6953585253
0!
#6973096972
1!
#6973585253
0!
#6993096973
1!
#6993585254
0!
#7000171948
0"
#7000172110
0#
#7013096972
1!
#7013585254
0!
#7033096972
1!
#7033585253
0!
#7053096972
1!
#7053585253
0!
#7073096973
1!
#7073585254
0!
#7093096972
1!
#7093585254
0!
#7113096972
1!
#7113585253
0!
#7133096972
1!
#7133585253
0!
#7153096973
1!
#7153585254
0!
#7173096972
1!
#7173585254
0!
#7193096972
1!
#7193585253
0!
#7213096972
1!
#7213585253
0!
#7233096973
1!
#7233585254
0!
#7253096972
1!
#7253585254
0!
#7273096972
1!
#7273585253
0!
#7293096972
1!
#7293585253
0!
#7313096973
1!
#7313585254
0!
#7333096972
1!
#7333585254
0!
#7353096972
1!
#7353585253
0!
#7373096972
1!
#7373585253
0!
#7393096973
1!
#7393585254
0!
#7413096972
1!
#7413585254
0!
#7433096972
1!
#7433585253
0!
#7453096972
1!
#7453585253
0!
#7473096973
1!
#7473585254
0!
#7493096972
1!
#7493585254
0!
#7500175582
1"
#7500175736
1#
#7513096972
1!
#7513585253
0!
#7533096972
1!
#7533585253
0!
#7553096973
1!
#7553585254
0!
#7573096972
1!
#7573585254
0!
#7593096972
1!
#7593585253
0!
#7613096972
1!
#7613585253
0!
#7633096973
1!
#7633585254
0!
#7653096972
1!
#7653585254
0!
#7673096972
1!
#7673585253
0!
#7693096972
1!
#7693585253
0!
#7713096973
1!
#7713585254
0!
#7733096972
1!
#7733585254
0!
#7753096972
1!
#7753585253
0!
#7773096972
1!
#7773585253
0!
#7793096973
1!
#7793585254
0!
#7813096972
1!
#7813585254
0!
#7833096972
1!
#7833585253
0!
#7853096972
1!
#7853585253
0!
#7873096973
1!
#7873585254
0!
#7893096972
1!
#7893585254
0!
#7913096972
1!
#7913585253
0!
#7933096972
1!
#7933585253
0!
#7953096973
1!
#7953585254
0!
#7973096972
1!
#7973585254
0!
#7993096972
1!
#7993585253
0!
#8013096972
1!
#8013585253
0!
#8033096973
1!
#8033585254
0!
#8042902291
0"
#8042907166
0#
#8053096972
1!
#8053585254
0!
#8073096972
1!
#8073585253
0!
#8093096972
1!
#8093585253
0!
#8113096973
1!
#8113585254
0!
#8133096972
1!
#8133585254
0!
#8153096972
1!
#8153585253
0!
#8173096972
1!
#8173585253
0!
#8193096973
1!
#8193585254
0!
#8213096972
1!
#8213585254
0!
#8233096972
1!
#8233585253
0!
#8253096972
1!
#8253585253
0!
#8273096973
1!
#8273585254
0!
#8293096972
1!
#8293585254
0!
#8313096972
1!
#8313585253
0!
#8333096972
1!
#8333585253
0!
#8353096973
1!
#8353585254
0!
#8373096972
1!
#8373585254
0!
#8393096972
1!
#8393585253
0!
#8413096972
1!
#8413585253
0!
#8433096973
1!
#8433585254
0!
#8453096972
1!
#8453585254
0!
#8473096972
1!
#8473585253
0!
#8493096972
1!
#8493585253
0!
#8500175550
1"
#8500175704
1#
#8513096973
1!
#8513585254
0!
#8533096972
1!
#8533585254
0!
#8553096972
1!
#8553585253
0!
#8573096972
1!
#8573585253
0!
#8593096973
1!
#8593585254
0!
#8613096972
1!
#8613585254
0!
#8633096972
1!
#8633585253
0!
#8653096972
1!
#8653585253
0!
#8673096973
1!
#8673585254
0!
#8693096972
1!
#8693585254
0!
#8713096972
1!
#8713585253
0!
#8733096972
1!
#8733585253
0!
#8753096973
1!
#8753585254
0!
#8773096972
1!
#8773585254
0!
#8793096972
1!
#8793585253
0!
#8813096972
1!
#8813585253
0!
#8833096973
1!
#8833585254
0!
#8853096972
1!
#8853585254
0!
#8873096972
1!
#8873585253
0!
#8893096972
1!
#8893585253
0!
#8913096973
1!
#8913585254
0!
#8933096972
1!
#8933585254
0!
#8953096972
1!
#8953585253
0!
#8973096972
1!
#8973585253
0!
#8993096973
1!
#8993585254
0!
#9000171970
0"
#9000172133
0#
#9013096972
1!
#9013585254
0!
#9033096972
1!
#9033585253
0!
#9053096972
1!
#9053585253
0!
#9073096973
1!
#9073585254
0!
#9093096972
1!
#9093585254
0!
#9113096972
1!
#9113585253
0!
#9133096972
1!
#9133585253
0!
#9153096973
1!
#9153585254
0!
#9173096972
1!
#9173585254
0!
#9193096972
1!
#9193585253
0!
#9213096972
1!
#9213585253
0!
#9233096973
1!
#9233585254
0!
#9253096972
1!
#9253585254
0!
#9273096972
1!
#9273585253
0!
#9293096972
1!
#9293585253
0!
#9313096973
1!
#9313585254
0!
#9333096972
1!
#9333585254
0!
#9353096972
1!
#9353585253
0!
#9373096972
1!
#9373585253
0!
#9393096973
1!
#9393585254
0!
#9413096972
1!
#9413585254
0!
#9433096972
1!
#9433585253
0!
#9453096972
1!
#9453585253
0!
#9473096973
1!
#9473585254
0!
#9493096972
1!
#9493585254
0!
#9500175765
1"
#9500175919
1#
#9513096972
1!
#9513585253
0!
#9533096972
1!
#9533585253
0!
#9553096973
1!
#9553585254
0!
#9573096972
1!
#9573585254
0!
#9593096972
1!
#9593585253
0!
#9613096972
1!
#9613585253
0!
#9633096973
1!
#9633585254
0!
#9653096972
1!
#9653585254
0!
#9673096972
1!
#9673585253
0!
#9693096972
1!
#9693585253
0!
#9713096973
1!
#9713585254
0!
#9733096972
1!
#9733585254
0!
#9753096972
1!
#9753585253
0!
#9773096972
1!
#9773585253
0!
#9793096973
1!
#9793585254
0!
#9813096972
1!
#9813585254
0!
#9833096972
1!
#9833585253
0!
#9853096972
1!
#9853585253
0!
#9873096973
1!
#9873585254
0!
#9893096972
1!
#9893585254
0!
#9913096972
1!
#9913585253
0!
#9933096972
1!
#9933585253
0!
#9953096973
1!
#9953585254
0!
#9973096972
1!
#9973585254
0!
#9993096972
1!
#9993585253
0!
#10013096972
1!
#10013585253
0!
#10033096973
1!
#10033585254
0!
#10053096972
1!
#10053585254
0!
#10062913997
0"
#10062918872
0#
#10073096972
1!
#10073585253
0!
#10093096972
1!
#10093585253
0!
#10113096973
1!
#10113585254
0!
#10133096972
1!
#10133585254
0!
#10153096972
1!
#10153585253
0!
#10173096972
1!
#10173585253
0!
#10193096973
1!
#10193585254
0!
#10213096972
1!
#10213585254
0!
#10233096972
1!
#10233585253
0!
#10253096972
1!
#10253585253
0!
#10273096973
1!
#10273585254
0!
#10293096972
1!
#10293585254
0!
#10313096972
1!
#10313585253
0!
#10333096972
1!
#10333585253
0!
#10353096973
1!
#10353585254
0!
#10373096972
1!
#10373585254
0!
#10393096972
1!
#10393585253
0!
#10413096972
1!
#10413585253
0!
#10433096973
1!
#10433585254
0!
#10453096972
1!
#10453585254
0!
#10473096972
1!
#10473585253
0!
#10493096972
1!
#10493585253
0!
#10500175742
1"
#10500175896
1#
#10513096973
1!
#10513585254
0!
#10533096972
1!
#10533585254
0!
#10553096972
1!
#10553585253
0!
#10573096972
1!
#10573585253
0!
#10593096973
1!
#10593585254
0!
#10613096972
1!
#10613585254
0!
#10633096972
1!
#10633585253
0!
#10653096972
1!
#10653585253
0!
#10673096973
1!
#10673585254
0!
#10693096972
1!
#10693585254
0!
#10713096972
1!
#10713585253
0!
#10733096972
1!
#10733585253
0!
#10753096973
1!
#10753585254
0!
#10773096972
1!
#10773585254
0!
#10793096972
1!
#10793585253
0!
#10813096972
1!
#10813585253
0!
#10833096973
1!
#10833585254
0!
#10853096972
1!
#10853585254
0!
#10873096972
1!
#10873585253
0!
#10893096972
1!
#10893585253
0!
#10913096973
1!
#10913585254
0!
#10933096972
1!
#10933585254
0!
#10953096972
1!
#10953585253
0!
#10973096972
1!
#10973585253
0!
#10993096973
1!
#10993585254
0!
#11000171958
0"
#11000172121
0#
#11013096972
1!
#11013585254
0!
#11033096972
1!
#11033585253
0!
#11053096972
1!
#11053585253
0!
#11073096973
1!
#11073585254
0!
#11093096972
1!
#11093585254
0!
#11113096972
1!
#11113585253
0!
#11133096972
1!
#11133585253
0!
#11153096973
1!
#11153585254
0!
#11173096972
1!
#11173585254
0!
#11193096972
1!
#11193585253
0!
#11213096972
1!
#11213585253
0!
#11233096973
1!
#11233585254
0!
#11253096972
1!
#11253585254
0!
#11273096972
1!
#11273585253
0!
#11293096972
1!
#11293585253
0!
#11313096973
1!
#11313585254
0!
#11333096972
1!
#11333585254
0!
#11353096972
1!
#11353585253
0!
#11373096972
1!
#11373585253
0!
#11393096973
1!
#11393585254
0!
#11413096972
1!
#11413585254
0!
#11433096972
1!
#11433585253
0!
#11453096972
1!
#11453585253
0!
#11473096973
1!
#11473585254
0!
#11493096972
1!
#11493585254
0!
#11500175753
1"
#11500175907
1#
#11513096972
1!
#11513585253
0!
#11533096972
1!
#11533585253
0!
#11553096973
1!
#11553585254
0!
#11573096972
1!
#11573585254
0!
#11593096972
1!
#11593585253
0!
#11613096972
1!
#11613585253
0!
#11633096973
1!
#11633585254
0!
#11653096972
1!
#11653585254
0!
#11673096972
1!
#11673585253
0!
#11693096972
1!
#11693585253
0!
#11713096973
1!
#11713585254
0!
#11733096972
1!
#11733585254
0!
#11753096972
1!
#11753585253
0!
#11773096972
1!
#11773585253
0!
#11793096973
1!
#11793585254
0!
#11813096972
1!
#11813585254
0!
#11833096972
1!
#11833585253
0!
#11853096972
1!
#11853585253
0!
#11873096973
1!
#11873585254
0!
#11893096972
1!
#11893585254
0!
#11913096972
1!
#11913585253
0!
#11933096972
1!
#11933585253
0!
#11953096973
1!
#11953585254
0!
#11973096972
1!
#11973585254
0!
#11993096972
1!
#11993585253
0!
#12013096972
1!
#12013585253
0!
#12033096973
1!
#12033585254
0!
#12043922849
0"
#12043927724
0#
#12053096972
1!
#12054549536
0!
#12073096972
1!
#12074542285
0!
#12093096972
1!
#12094542285
0!
#12113096973
1!
#12114542285
0!
#12133096972
1!
#12134542285
0!
#12153096972
1!
#12154542285
0!
#12173096972
1!
#12174542285
0!
#12193096973
1!
#12194542285
0!
#12213096972
1!
#12214542285
0!
#12233096972
1!
#12234542285
0!
#12253096972
1!
#12254542285
0!
#12273096973
1!
#12274542285
0!
#12293096972
1!
#12294542285
0!
#12313096972
1!
#12314542285
0!
#12333096972
1!
#12334542285
0!
#12353096973
1!
#12354542285
0!
#12373096972
1!
#12374542285
0!
#12393096972
1!
#12394542285
0!
#12413096972
1!
#12414542285
0!
#12433096973
1!
#12434542285
0!
#12453096972
1!
#12454542285
0!
#12473096972
1!
#12474542285
0!
#12493096972
1!
#12494542285
0!
#12500171997
1"
#12500172152
1#
#12513096973
1!
#12514542285
0!
#12533096972
1!
#12534542285
0!
#12553096972
1!
#12554542285
0!
#12573096972
1!
#12574542285
0!
#12593096973
1!
#12594542285
0!
#12613096972
1!
#12614542285
0!
#12633096972
1!
#12634542285
0!
#12653096972
1!
#12654542285
0!
#12673096973
1!
#12674542285
0!
#12693096972
1!
#12694542285
0!
#12713096972
1!
#12714542285
0!
#12733096972
1!
#12734542285
0!
#12753096973
1!
#12754542285
0!
#12773096972
1!
#12774542285
0!
#12793096972
1!
#12794542285
0!
#12813096972
1!
#12814542285
0!
#12833096973
1!
#12834542285
0!
#12853096972
1!
#12854542285
0!
#12873096972
1!
#12874542285
0!
#12893096972
1!
#12894542285
0!
#12913096973
1!
#12914542285
0!
#12933096972
1!
#12934542285
0!
#12953096972
1!
#12954542285
0!
#12973096972
1!
#12974542285
0!
#12993096973
1!
#12994542285
0!
#13000171096
0"
#13000171259
0#
#13013096972
1!
#13014542285
0!
#13033096972
1!
#13034542285
0!
#13053096972
1!
#13054542285
0!
#13073096973
1!
#13074542285
0!
#13093096972
1!
#13094542285
0!
#13113096972
1!
#13114542285
0!
#13133096972
1!
#13134542285
0!
#13153096973
1!
#13154542285
0!
#13173096972
1!
#13174542285
0!
#13193096972
1!
#13194542285
0!
#13213096972
1!
#13214542285
0!
#13233096973
1!
#13234542285
0!
#13253096972
1!
#13254542285
0!
#13273096972
1!
#13274542285
0!
#13293096972
1!
#13294542285
0!
#13313096973
1!
#13314542285
0!
#13333096972
1!
#13334542285
0!
#13353096972
1!
#13354542285
0!
#13373096972
1!
#13374542285
0!
#13393096973
1!
#13394542285
0!
#13413096972
1!
#13414542285
0!
#13433096972
1!
#13434542285
0!
#13453096972
1!
#13454542285
0!
#13473096973
1!
#13474542285
0!
#13493096972
1!
#13494542285
0!
#13500172007
1"
#13500172162
1#
#13513096972
1!
#13514542285
0!
#13533096972
1!
#13534542285
0!
#13553096973
1!
#13554542285
0!
#13573096972
1!
#13574542285
0!
#13593096972
1!
#13594542285
0!
#13613096972
1!
#13614542285
0!
#13633096973
1!
#13634542285
0!
#13653096972
1!
#13654542285
0!
#13673096972
1!
#13674542285
0!
#13693096972
1!
#13694542285
0!
#13713096973
1!
#13714542285
0!
#13733096972
1!
#13734542285
0!
#13753096972
1!
#13754542285
0!
#13773096972
1!
#13774542285
0!
#13793096973
1!
#13794542285
0!
#13813096972
1!
#13814542285
0!
#13833096972
1!
#13834542285
0!
#13853096972
1!
#13854542285
0!
#13873096973
1!
#13874542285
0!
#13893096972
1!
#13894542285
0!
#13913096972
1!
#13914542285
0!
#13933096972
1!
#13934542285
0!
#13953096973
1!
#13954542285
0!
#13973096972
1!
#13974542285
0!
#13993096972
1!
#13994542285
0!
#14013096972
1!
#14014542285
0!
#14033096973
1!
#14034542285
0!
#14051322931
0"
#14051327806
0#
#14053096972
1!
#14054542285
0!
#14073096972
1!
#14074542285
0!
#14093096972
1!
#14094542285
0!
#14113096973
1!
#14114542285
0!
#14133096972
1!
#14134542285
0!
#14153096972
1!
#14154542285
0!
#14173096972
1!
#14174542285
0!
#14193096973
1!
#14194542285
0!
#14213096972
1!
#14214542285
0!
#14233096972
1!
#14234542285
0!
#14253096972
1!
#14254542285
0!
#14273096973
1!
#14274542285
0!
#14293096972
1!
#14294542285
0!
#14313096972
1!
#14314542285
0!
#14333096972
1!
#14334542285
0!
#14353096973
1!
#14354542285
0!
#14373096972
1!
#14374542285
0!
#14393096972
1!
#14394542285
0!
#14413096972
1!
#14414542285
0!
#14433096973
1!
#14434542285
0!
#14453096972
1!
#14454542285
0!
#14473096972
1!
#14474542285
0!
#14493096972
1!
#14494542285
0!
#14500172030
1"
#14500172184
1#
#14513096973
1!
#14514542285
0!
#14533096972
1!
#14534542285
0!
#14553096972
1!
#14554542285
0!
#14573096972
1!
#14574542285
0!
#14593096973
1!
#14594542285
0!
#14613096972
1!
#14614542285
0!
#14633096972
1!
#14634542285
0!
#14653096972
1!
#14654542285
0!
#14673096973
1!
#14674542285
0!
#14693096972
1!
#14694542285
0!
#14713096972
1!
#14714542285
0!
#14733096972
1!
#14734542285
0!
#14753096973
1!
#14754542285
0!
#14773096972
1!
#14774542285
0!
#14793096972
1!
#14794542285
0!
#14813096972
1!
#14814542285
0!
#14833096973
1!
#14834542285
0!
#14853096972
1!
#14854542285
0!
#14873096972
1!
#14874542285
0!
#14893096972
1!
#14894542285
0!
#14913096973
1!
#14914542285
0!
#14933096972
1!
#14934542285
0!
#14953096972
1!
#14954542285
0!
#14973096972
1!
#14974542285
0!
#14993096973
1!
#14994542285
0!
#15000171262
0"
#15000171425
0#
#15013096972
1!
#15014542285
0!
#15033096972
1!
#15034542285
0!
#15053096972
1!
#15054542285
0!
#15073096973
1!
#15074542285
0!
#15093096972
1!
#15094542285
0!
#15113096972
1!
#15114542285
0!
#15133096972
1!
#15134542285
0!
#15153096973
1!
#15154542285
0!
#15173096972
1!
#15174542285
0!
#15193096972
1!
#15194542285
0!
#15213096972
1!
#15214542285
0!
#15233096973
1!
#15234542285
0!
#15253096972
1!
#15254542285
0!
#15273096972
1!
#15274542285
0!
#15293096972
1!
#15294542285
0!
#15313096973
1!
#15314542285
0!
#15333096972
1!
#15334542285
0!
#15353096972
1!
#15354542285
0!
#15373096972
1!
#15374542285
0!
#15393096973
1!
#15394542285
0!
#15413096972
1!
#15414542285
0!
#15433096972
1!
#15434542285
0!
#15453096972
1!
#15454542285
0!
#15473096973
1!
#15474542285
0!
#15493096972
1!
#15494542285
0!
#15500172024
1"
#15500172178
1#
#15513096972
1!
#15514542285
0!
#15533096972
1!
#15534542285
0!
#15553096973
1!
#15554542285
0!
#15573096972
1!
#15574542285
0!
#15593096972
1!
#15594542285
0!
#15613096972
1!
#15614542285
0!
#15633096973
1!
#15634542285
0!
#15653096972
1!
#15654542285
0!
#15673096972
1!
#15674542285
0!
#15693096972
1!
#15694542285
0!
#15713096973
1!
#15714542285
0!
#15733096972
1!
#15734542285
0!
#15753096972
1!
#15754542285
0!
#15773096972
1!
#15774542285
0!
#15793096973
1!
#15794542285
0!
#15813096972
1!
#15814542285
0!
#15833096972
1!
#15834542285
0!
#15853096972
1!
#15854542285
0!
#15873096973
1!
#15874542285
0!
#15893096972
1!
#15894542285
0!
#15913096972
1!
#15914542285
0!
#15933096972
1!
#15934542285
0!
#15953096973
1!
#15954542285
0!
#15973096972
1!
#15974542285
0!
#15993096972
1!
#15994542285
0!
#16013096972
1!
#16014542285
0!
#16031324252
0"
#16031329127
0#
#16033096973
1!
#16034542285
0!
#16053096972
1!
#16054542285
0!
#16073096972
1!
#16074542285
0!
#16093096972
1!
#16094542285
0!
#16113096973
1!
#16114542285
0!
#16133096972
1!
#16134542285
0!
#16153096972
1!
#16154542285
0!
#16173096972
1!
#16174542285
0!
#16193096973
1!
#16194542285
0!
#16213096972
1!
#16214542285
0!
#16233096972
1!
#16234542285
0!
#16253096972
1!
#16254542285
0!
#16273096973
1!
#16274542285
0!
#16293096972
1!
#16294542285
0!
#16313096972
1!
#16314542285
0!
#16333096972
1!
#16334542285
0!
#16353096973
1!
#16354542285
0!
#16373096972
1!
#16374542285
0!
#16393096972
1!
#16394542285
0!
#16413096972
1!
#16414542285
0!
#16433096973
1!
#16434542285
0!
#16453096972
1!
#16454542285
0!
#16473096972
1!
#16474542285
0!
#16493096972
1!
#16494542285
0!
#16500172005
1"
#16500172159
1#
#16513096973
1!
#16514542285
0!
#16533096972
1!
#16534542285
0!
#16553096972
1!
#16554542285
0!
#16573096972
1!
#16574542285
0!
#16593096973
1!
#16594542285
0!
#16613096972
1!
#16614542285
0!
#16633096972
1!
#16634542285
0!
#16653096972
1!
#16654542285
0!
#16673096973
1!
#16674542285
0!
#16693096972
1!
#16694542285
0!
#16713096972
1!
#16714542285
0!
#16733096972
1!
#16734542285
0!
#16753096973
1!
#16754542285
0!
#16773096972
1!
#16774542285
0!
#16793096972
1!
#16794542285
0!
#16813096972
1!
#16814542285
0!
#16833096973
1!
#16834542285
0!
#16853096972
1!
#16854542285
0!
#16873096972
1!
#16874542285
0!
#16893096972
1!
#16894542285
0!
#16913096973
1!
#16914542285
0!
#16933096972
1!
#16934542285
0!
#16953096972
1!
#16954542285
0!
#16973096972
1!
#16974542285
0!
#16993096973
1!
#16994542285
0!
#17000171295
0"
#17000171458
0#
#17013096972
1!
#17014542285
0!
#17033096972
1!
#17034542285
0!
#17053096972
1!
#17054542285
0!
#17073096973
1!
#17074542285
0!
#17093096972
1!
#17094542285
0!
#17113096972
1!
#17114542285
0!
#17133096972
1!
#17134542285
0!
#17153096973
1!
#17154542285
0!
#17173096972
1!
#17174542285
0!
#17193096972
1!
#17194542285
0!
#17213096972
1!
#17214542285
0!
#17233096973
1!
#17234542285
0!
#17253096972
1!
#17254542285
0!
#17273096972
1!
#17274542285
0!
#17293096972
1!
#17294542285
0!
#17313096973
1!
#17314542285
0!
#17333096972
1!
#17334542285
0!
#17353096972
1!
#17354542285
0!
#17373096972
1!
#17374542285
0!
#17393096973
1!
#17394542285
0!
#17413096972
1!
#17414542285
0!
#17433096972
1!
#17434542285
0!
#17453096972
1!
#17454542285
0!
#17473096973
1!
#17474542285
0!
#17493096972
1!
#17494542285
0!
#17500172029
1"
#17500172184
1#
#17513096972
1!
#17514542285
0!
#17533096972
1!
#17534542285
0!
#17553096973
1!
#17554542285
0!
#17573096972
1!
#17574542285
0!
#17593096972
1!
#17594542285
0!
#17613096972
1!
#17614542285
0!
#17633096973
1!
#17634542285
0!
#17653096972
1!
#17654542285
0!
#17673096972
1!
#17674542285
0!
#17693096972
1!
#17694542285
0!
#17713096973
1!
#17714542285
0!
#17733096972
1!
#17734542285
0!
#17753096972
1!
#17754542285
0!
#17773096972
1!
#17774542285
0!
#17793096973
1!
#17794542285
0!
#17813096972
1!
#17814542285
0!
#17833096972
1!
#17834542285
0!
#17853096972
1!
#17854542285
0!
#17873096973
1!
#17874542285
0!
#17893096972
1!
#17894542285
0!
#17913096972
1!
#17914542285
0!
#17933096972
1!
#17934542285
0!
#17953096973
1!
#17954542285
0!
#17973096972
1!
#17974542285
0!
#17993096972
1!
#17994542285
0!
#18013096972
1!
#18014542285
0!
#18023330000
0"
#18023334875
0#
#18033096973
1!
#18034542285
0!
#18053096972
1!
#18054542285
0!
#18073096972
1!
#18074542285
0!
#18093096972
1!
#18094542285
0!
#18113096973
1!
#18114542285
0!
#18133096972
1!
#18134542285
0!
#18153096972
1!
#18154542285
0!
#18173096972
1!
#18174542285
0!
#18193096973
1!
#18194542285
0!
#18213096972
1!
#18214542285
0!
#18233096972
1!
#18234542285
0!
#18253096972
1!
#18254542285
0!
#18273096973
1!
#18274542285
0!
#18293096972
1!
#18294542285
0!
#18313096972
1!
#18314542285
0!
#18333096972
1!
#18334542285
0!
#18353096973
1!
#18354542285
0!
#18373096972
1!
#18374542285
0!
#18393096972
1!
#18394542285
0!
#18413096972
1!
#18414542285
0!
#18433096973
1!
#18434542285
0!
#18453096972
1!
#18454542285
0!
#18473096972
1!
#18474542285
0!
#18493096972
1!
#18494542285
0!
#18500172024
1"
#18500172178
1#
#18513096973
1!
#18514542285
0!
#18533096972
1!
#18534542285
0!
#18553096972
1!
#18554542285
0!
#18573096972
1!
#18574542285
0!
#18593096973
1!
#18594542285
0!
#18613096972
1!
#18614542285
0!
#18633096972
1!
#18634542285
0!
#18653096972
1!
#18654542285
0!
#18673096973
1!
#18674542285
0!
#18693096972
1!
#18694542285
0!
#18713096972
1!
#18714542285
0!
#18733096972
1!
#18734542285
0!
#18753096973
1!
#18754542285
0!
#18773096972
1!
#18774542285
0!
#18793096972
1!
#18794542285
0!
#18813096972
1!
#18814542285
0!
#18833096973
1!
#18834542285
0!
#18853096972
1!
#18854542285
0!
#18873096972
1!
#18874542285
0!
#18893096972
1!
#18894542285
0!
#18913096973
1!
#18914542285
0!
#18933096972
1!
#18934542285
0!
#18953096972
1!
#18954542285
0!
#18973096972
1!
#18974542285
0!
#18993096973
1!
#18994542285
0!
#19000171263
0"
#19000171426
0#
#19013096972
1!
#19014542285
0!
#19033096972
1!
#19034542285
0!
#19053096972
1!
#19054542285
0!
#19073096973
1!
#19074542285
0!
#19093096972
1!
#19094542285
0!
#19113096972
1!
#19114542285
0!
#19133096972
1!
#19134542285
0!
#19153096973
1!
#19154542285
0!
#19173096972
1!
#19174542285
0!
#19193096972
1!
#19194542285
0!
#19213096972
1!
#19214542285
0!
#19233096973
1!
#19234542285
0!
#19253096972
1!
#19254542285
0!
#19273096972
1!
#19274542285
0!
#19293096972
1!
#19294542285
0!
#19313096973
1!
#19314542285
0!
#19333096972
1!
#19334542285
0!
#19353096972
1!
#19354542285
0!
#19373096972
1!
#19374542285
0!
#19393096973
1!
#19394542285
0!
#19413096972
1!
#19414542285
0!
#19433096972
1!
#19434542285
0!
#19453096972
1!
